﻿,,,,,,2020/12/10
,,,,,,
順位,書名,著者,出版社,本体価格,ＩＳＢＮ,備考
1,世界一かんたん定番年賀状　　　　２０２１,年賀状素材集編集部 ,角川アスキ－総合研究所　,398 ,9784049110562 ,
2,鬼滅の刃  風の道しるべ,吾峠呼世晴,集英社  ,700 ,9784087034981 ,
3,ブラック・ショーマンと名もなき町の殺人,東野圭吾  ,光文社  ,"1,800 ",9784334913724 ,
4,あっという間にかんたん年賀状　２０２１年版,          ,技術評論社 ,390 ,9784297115746 ,
5,鬼滅の刃  片羽の蝶,吾峠呼世晴,集英社  ,700 ,9784087034851 ,
6,鬼滅の刃  しあわせの花,吾峠呼世晴,集英社  ,700 ,9784087034738 ,
7,明るい暮らしの家計簿　　　　２０２１年版,ときわ総合サ－ビス ,ときわ総合サ－ビス ,700 ,9784887860773 ,
8,劇場版鬼滅の刃無限列車編ノベライズ,吾峠呼世晴,集英社  ,700 ,9784087035032 ,
9,人は話し方が９割,永松茂久  ,すばる舎,"1,400 ",9784799108420 ,
10,♪ピンポンパンポンプー,中居正広  ,マガジンハウス ,"1,500 ",9784838731176 ,