﻿,,,,,,2020/12/24
,,,,,,
順位,書名,著者,出版社,本体価格,ＩＳＢＮ,備考
1,秘密の法,大川隆法  ,幸福の科学出版 ,"2,000 ",9784823302381 ,
2,世界一かんたん定番年賀状　　　　２０２１,年賀状素材集編集部 ,角川アスキ－総合研究所　,398 ,9784049110562 ,
3,あっという間にかんたん年賀状　２０２１年,          ,技術評論社 ,390 ,9784297115746 ,
4,印刷するだけびゅんびゅん年賀状　２０２１,年賀状素材集編集部 ,角川アスキ－総合研究所,420 ,9784049110579 ,
5,明るい暮らしの家計簿　　　　２０２１年版,ときわ総合サ－ビス,ときわ総合サ－ビス,700 ,9784887860773 ,
6,季刊のぼろ　Ｖｏｌ．３１ ２０２０冬,西日本新聞社 ,西日本新聞社 ,909 ,9784816709869 ,
7,あっという間に完成！筆まめ年賀　２０２１版,          ,技術評論社 ,450 ,9784297115906 ,
8,ブラック・ショーマンと名もなき町の殺人,東野圭吾  ,光文社  ,"1,800 ",9784334913724 ,
9,もらってうれしいおしゃれな年賀　２０２１,年賀状素材集編集部 ,角川アスキ－総合研究所　,580 ,9784049110623 ,
10,鬼滅の刃  風の道しるべ,吾峠呼世晴,集英社  ,700 ,9784087034981 ,