﻿,,,,,,2020/11/16
,,,,,,
順位,書名,著者,出版社,本体価格,ＩＳＢＮ,備考
1,劇場版鬼滅の刃無限列車編ノベライズ,吾峠呼世晴,集英社  ,700 ,9784087035032 ,
2,ハイキュー！！ショーセツバン！！　　１３,古舘春一  ,集英社  ,700 ,9784087035049 ,
3,おしりたんてい  おしりたんていのこい！？,トロル    ,ポプラ社,980 ,9784591166970 ,
4,世界一かんたん定番年賀状　　　　２０２１,年賀状素材,角川アスキ－総合研究所,398 ,9784049110562 ,
5,人は話し方が９割,永松茂久  ,すばる舎,"1,400 ",9784799108420 ,
6,デスマーチからはじまる異世界狂想曲　２１,愛七ひろ  ,KADOKAWA,"1,200 ",9784040738659 ,
7,鬼滅の刃  風の道しるべ,吾峠呼世晴,集英社  ,700 ,9784087034981 ,
8,明るい暮らしの家計簿　　　　２０２１年版,ときわ総合サービス ,ときわ総合サービス ,700 ,9784887860773 ,
9,ＨＡＷＫＳ  ２０２０優勝記念グラフ誌,西日本新聞社 ,西日本新聞社 ,800 ,9784816709852 ,
10,劇場版鬼滅の刃無限列車編ノベライズみらい文庫版,吾峠呼世晴,集英社  ,700 ,9784083216039 ,