﻿,,,,,,2021/4/27
,,,,,,
順位,書名,著者,出版社,本体価格,ＩＳＢＮ,備考
1,５２ヘルツのクジラたち,町田そのこ,中央公論新社 ,"1,600 ",9784120052989 ,
2,天使たちの課外活動　　　　　　　　　　８,茅田砂胡  ,中央公論新社 ,"1,000 ",9784125014326 ,
3,白鳥とコウモリ,東野圭吾  ,幻冬舎  ,"2,000 ",9784344037731 ,
4,ＣＸ（カスタマー・エクスペリエンス）戦略,田中達雄  ,東洋経済新報社 ,"2,400 ",9784492557853 ,
5,名探偵コナン  緋色の弾丸,水稀しま  ,小学館  ,700 ,9784092313293 ,
6,人は話し方が９割,永松茂久  ,すばる舎,"1,400 ",9784799108420 ,
7,在宅ひとり死のススメ,上野千鶴子,文藝春秋,800 ,9784166612956 ,
8,鬼滅の刃塗絵帳－蒼－,吾峠呼世晴,集英社  ,800 ,9784087900255 ,
9,どうしても頑張れない人たち,宮口幸治  ,新潮社  ,720 ,9784106109034 ,
10,推し、燃ゆ,宇佐見りん,河出書房新社 ,"1,400 ",9784309029160 ,