﻿,,,,,,2021/3/13
,,,,,,
順位,書名,著者,出版社,本体価格,ＩＳＢＮ,備考
1,鬼滅の刃塗絵帳－蒼－,吾峠呼世晴,集英社  ,800 ,9784087900255 ,
2,鬼滅の刃塗絵帳－紅－,吾峠呼世晴,集英社  ,800 ,9784087900262 ,
3,推し、燃ゆ,宇佐見りん,河出書房,"1,400 ",9784309029160 ,
4,スマホ脳,アンダース・ハンセン ,新潮社  ,980 ,9784106108822 ,
5,秘密の法,大川隆法  ,幸福の科学出版 ,"2,000 ",9784823302381 ,
6,Ｓｎｏｗ Ｍａｎ カレンダー ２０２１．４－２０２２．３ Ｊｏｈｎｎｙｓ’ Ｏｆｆｉｃｉａ,新潮社    ,新潮社  ,"2,273 ",9784108991750 ,
7,Ｋｉｎｇ ＆ Ｐｒｉｎｃｅ ２０２１．４－２０２２．３ オフィシャルカレンダー,講談社    ,講談社  ,"2,273 ",9784065225165 ,
8,本当の自由を手に入れるお金の大学,両＠リベ大学長 ,朝日新聞出版 ,"1,400 ",9784023318786 ,
9,星ひとみの天星術,星ひとみ  ,幻冬舎  ,"1,200 ",9784344037441 ,
10,在宅ひとり死のススメ,上野千鶴子,文藝春秋,800 ,9784166612956 ,