﻿book,1,52ヘルツのクジラたち,町田そのこ,中央公論新社,"1,760円",9784120052989,https://www.honyaclub.com/shop/g/g19885913/,https://www.honyaclub.com/img/goods/book/L/12/005/298.jpg,stay
book,2,白鳥とコウモリ,東野圭吾,幻冬舎,"2,200円",9784344037731,https://www.honyaclub.com/shop/g/g20220360/,https://www.honyaclub.com/img/goods/book/L/34/403/773.jpg,up
book,3,人は話し方が9割,永松茂久,すばる舎,"1,540円",9784799108420,https://www.honyaclub.com/shop/g/g19692108/,https://www.honyaclub.com/img/goods/book/L/79/910/842.jpg,up
book,4,名探偵コナン 緋色の弾丸,水稀しま,小学館,770円,9784092313293,https://www.honyaclub.com/shop/g/g20232251/,https://www.honyaclub.com/img/goods/book/L/09/231/329.jpg,up
book,5,スマホ脳,アンダース・ハンセン,新潮社,"1,078円",9784106108822,https://www.honyaclub.com/shop/g/g20080635/,https://www.honyaclub.com/img/goods/book/L/10/610/882.jpg,new
book,6,本当の自由を手に入れるお金の大学,両@リベ大学長,朝日新聞出版,"1,540円",9784023318786,https://www.honyaclub.com/shop/g/g19938207/,https://www.honyaclub.com/img/goods/book/L/02/331/878.jpg,new
book,7,鬼滅の刃塗絵帳ー蒼ー,吾峠呼世晴,集英社,880円,9784087900255,https://www.honyaclub.com/shop/g/g20187724/,https://www.honyaclub.com/img/goods/book/L/08/790/025.jpg,up
book,8,マジキプリンセス,,デアゴスティーニ・ジャパン,399円,9784813522836,https://www.honyaclub.com/shop/g/g20225992/,https://www.honyaclub.com/img/goods/book/L/81/352/283.jpg,new
book,9,眼圧リセット,清水ろっかん,飛鳥新社,"1,400円",9784864108157,https://www.honyaclub.com/shop/g/g20150444/,https://www.honyaclub.com/img/goods/book/L/86/410/815.jpg,new
book,10,ふしぎ駄菓子屋銭天堂 15,廣嶋玲子,偕成社,990円,9784036357505,https://www.honyaclub.com/shop/g/g20220312/,https://www.honyaclub.com/img/goods/book/L/03/635/750.jpg,new
