﻿book,1,鬼滅の刃 しあわせの花,吾峠呼世晴,集英社,770円,9784087034738,https://www.honyaclub.com/shop/g/g19522720/,https://www.honyaclub.com/img/goods/book/L/08/703/473.jpg,stay
book,2,鬼滅の刃 片羽の蝶,吾峠呼世晴,集英社,770円,9784087034851,https://www.honyaclub.com/shop/g/g19719347/,https://www.honyaclub.com/img/goods/book/L/08/703/485.jpg,stay
book,3,きたきた捕物帖,宮部みゆき,PHP研究所,"1,760円",9784569846941,https://www.honyaclub.com/shop/g/g19920238/,https://www.honyaclub.com/img/goods/book/L/56/984/694.jpg,stay
book,4,あつまれどうぶつの森完全攻略本+超カタログ,徳間書店,アンビット,"1,650円",9784198651015,https://www.honyaclub.com/shop/g/g19892908/,https://www.honyaclub.com/img/goods/book/L/19/865/101.jpg,stay
book,5,人は話し方が9割,永松茂久,すばる舎,"1,540円",9784799108420,https://www.honyaclub.com/shop/g/g19692108/,https://www.honyaclub.com/img/goods/book/L/79/910/842.jpg,stay
book,6,さらにざんねんないきもの事典,今泉忠明,高橋書店,"1,078円",9784471103873,https://www.honyaclub.com/shop/g/g19914458/,https://www.honyaclub.com/img/goods/book/L/47/110/387.jpg,stay
book,7,流浪の月,凪良ゆう,東京創元社,"1,650円",9784488028022,https://www.honyaclub.com/shop/g/g19685814/,https://www.honyaclub.com/img/goods/book/L/48/802/802.jpg,stay
book,8,女帝小池百合子,石井妙子,文藝春秋,"1,650円",9784163912301,https://www.honyaclub.com/shop/g/g19919252/,https://www.honyaclub.com/img/goods/book/L/16/391/230.jpg,stay
book,9,なぜ僕らは働くのか,池上彰,学研プラス,"1,650円",9784052051715,https://www.honyaclub.com/shop/g/g19856457/,https://www.honyaclub.com/img/goods/book/L/05/205/171.jpg,stay
book,10,世界一美味しい手抜きごはん,はらぺこグリズリー,KADOKAWA,"1,430円",9784046023476,https://www.honyaclub.com/shop/g/g19554271/,https://www.honyaclub.com/img/goods/book/L/04/602/347.jpg,stay
