﻿book,1,鬼滅の刃 風の道しるべ,吾峠呼世晴,集英社,770円,9784087034981,https://www.honyaclub.com/shop/g/g19947872/,https://www.honyaclub.com/img/goods/book/L/08/703/498.jpg,stay
book,2,デスマーチからはじまる異世界狂想曲 20,愛七ひろ,KADOKAWA,"1,320円",9784040732466,https://www.honyaclub.com/shop/g/g19957424/,https://www.honyaclub.com/img/goods/book/L/04/073/246.jpg,stay
book,3,還暦からの底力,出口治明,講談社,946円,9784065149874,https://www.honyaclub.com/shop/g/g19912034/,https://www.honyaclub.com/img/goods/book/L/06/514/987.jpg,stay
book,4,あつまれどうぶつの森完全攻略本+超カタログ,徳間書店,アンビット,"1,650円",9784198651015,https://www.honyaclub.com/shop/g/g19892908/,https://www.honyaclub.com/img/goods/book/L/19/865/101.jpg,stay
book,5,あつまれどうぶつの森ザ・コンプリートガイド,電撃ゲーム書籍編集部,KADOKAWA,"1,650円",9784047334717,https://www.honyaclub.com/shop/g/g19892122/,https://www.honyaclub.com/img/goods/book/L/04/733/471.jpg,stay
book,6,なぜ僕らは働くのか,池上彰,学研プラス,"1,650円",9784052051715,https://www.honyaclub.com/shop/g/g19856457/,https://www.honyaclub.com/img/goods/book/L/05/205/171.jpg,stay
book,7,女帝小池百合子,石井妙子,文藝春秋,"1,650円",9784163912301,https://www.honyaclub.com/shop/g/g19919252/,https://www.honyaclub.com/img/goods/book/L/16/391/230.jpg,stay
book,8,鬼滅の刃 片羽の蝶,吾峠呼世晴,集英社,770円,9784087034851,https://www.honyaclub.com/shop/g/g19719347/,https://www.honyaclub.com/img/goods/book/L/08/703/485.jpg,stay
book,9,鬼滅の刃 しあわせの花,吾峠呼世晴,集英社,770円,9784087034738,https://www.honyaclub.com/shop/g/g19522720/,https://www.honyaclub.com/img/goods/book/L/08/703/473.jpg,stay
book,10,「育ちがいい人」だけが知っていること,諏内えみ,ダイヤモンド社,"1,540円",9784478110133,https://www.honyaclub.com/shop/g/g19829073/,https://www.honyaclub.com/img/goods/book/L/47/811/013.jpg,stay
