﻿book,1,半沢直樹 アルルカンと道化師,池井戸潤,講談社,"1,760円",9784065190166,https://www.honyaclub.com/shop/g/g20023480/,https://www.honyaclub.com/img/goods/book/L/06/519/016.jpg,new
book,2,鋼鉄の法,大川隆法,幸福の科学出版,"2,200円",9784823301346,https://www.honyaclub.com/shop/g/g19761109/,https://www.honyaclub.com/img/goods/book/L/82/330/134.jpg,new
book,3,季刊のぼろ Vol.30 2020秋,西日本新聞社,西日本新聞社,"1,000円",9784816709838,https://www.honyaclub.com/shop/g/g20016008/,https://www.honyaclub.com/img/goods/book/L/81/670/983.jpg,new
book,4,「育ちがいい人」だけが知っていること,諏内えみ,ダイヤモンド社,"1,540円",9784478110133,https://www.honyaclub.com/shop/g/g19829073/,https://www.honyaclub.com/img/goods/book/L/47/811/013.jpg,down
book,5,RUN IT! 2,創価学会青年部「RUN IT!2」製作委員会,第三文明社,250円,9784476062458,https://www.honyaclub.com/shop/g/g20019367/,https://www.honyaclub.com/img/goods/book/L/47/606/245.jpg,new
book,6,気がつけば、終着駅,佐藤愛子(作家),中央公論新社,"1,320円",9784120052538,https://www.honyaclub.com/shop/g/g19766775/,https://www.honyaclub.com/img/goods/book/L/12/005/253.jpg,up
book,7,人は話し方が9割,永松茂久,すばる舎,"1,540円",9784799108420,https://www.honyaclub.com/shop/g/g19692108/,https://www.honyaclub.com/img/goods/book/L/79/910/842.jpg,down
book,8,「繊細さん」の本,武田友紀,飛鳥新社,"1,324円",9784864106269,https://www.honyaclub.com/shop/g/g19315346/,https://www.honyaclub.com/img/goods/book/L/86/410/626.jpg,down
book,9,なぜ僕らは働くのか,池上彰,学研プラス,"1,650円",9784052051715,https://www.honyaclub.com/shop/g/g19856457/,https://www.honyaclub.com/img/goods/book/L/05/205/171.jpg,down
book,10,筑紫・太宰府の昭和,地方・小出版流通センター,樹林舎,"9,990円",9784908436505,https://www.honyaclub.com/shop/g/g20019557/,https://www.honyaclub.com/img/goods/book/L/90/843/650.jpg,new
