﻿cds,1,RUN(通常盤),Sexy Zone,https://store-tsutaya.tsite.jp/item/sell_cd/4988031387603.html,https://store-tsutaya.tsite.jp/images/cache/tmb/30ce157f34085ae9c185fcdb08df6702.jpg,https://store-tsutaya.tsite.jp/images/cache/tmb/0167234cf4283b39205d6c712475fdbb.jpg,4988031387603,ユニバーサル・ミュージック,https://www.honyaclub.com/shop/g/g19947561/,"1,210円",new
cds,2,RUN(A)(DVD付)[初回限定版],Sexy Zone,https://store-tsutaya.tsite.jp/item/sell_cd/4988031387580.html,https://store-tsutaya.tsite.jp/images/cache/tmb/ef3aa1c66e6c99988252311fb837f00b.jpg,https://store-tsutaya.tsite.jp/images/cache/tmb/ff217dbcfd7d06b333c8f9d1bc221b73.jpg,4988031387580,ユニバーサル・ミュージック,https://www.honyaclub.com/shop/g/g19947559/,"1,650円",new
cds,3,RUN(B)(DVD付)[初回限定版],Sexy Zone,https://store-tsutaya.tsite.jp/item/sell_cd/4988031387597.html,https://store-tsutaya.tsite.jp/images/cache/tmb/4db682ceed5aa9cce44700a49a256c4b.jpg,https://store-tsutaya.tsite.jp/images/cache/tmb/2467f4e3db0099669331ccf4eed6cedc.jpg,4988031387597,ユニバーサル・ミュージック,https://www.honyaclub.com/shop/g/g19947560/,"1,650円",new
cds,4,カイト(通常盤),嵐,https://store-tsutaya.tsite.jp/item/sell_cd/4580117629920.html,https://store-tsutaya.tsite.jp/images/cache/tmb/05f4eb11951fdd90b412b1ac2cf83904.jpg,https://store-tsutaya.tsite.jp/images/cache/tmb/fed9d5c58c88998c1e5d84ae4afb1df1.jpg,4580117629920,ソニー・ミュージックソリューションズ,https://www.honyaclub.com/shop/g/g19938009/,"1,257円",new
cds,5,HELLO EP(DVD付),Official髭男dism,https://store-tsutaya.tsite.jp/item/sell_cd/4988013821460.html,https://store-tsutaya.tsite.jp/images/cache/tmb/17aa3dac4590e4df697fa50604ed881e.jpg,https://store-tsutaya.tsite.jp/images/cache/tmb/666616e2323b9f3bf4ff20b24a9b0e62.jpg,4988013821460,ポニーキャニオン,https://www.honyaclub.com/shop/g/g19951107/,"3,300円",new
cds,6,HELLO EP,Official髭男dism,https://store-tsutaya.tsite.jp/item/sell_cd/4988013821569.html,https://store-tsutaya.tsite.jp/images/cache/tmb/d9e15ea6763ded6a6ffd91eccc778b6c.jpg,https://store-tsutaya.tsite.jp/images/cache/tmb/ff08f38b1a5bbc9b553ed014b85198f2.jpg,4988013821569,ポニーキャニオン,https://www.honyaclub.com/shop/g/g19951108/,"1,650円",new
cds,7,カイト(DVD付)[初回限定版],嵐,https://store-tsutaya.tsite.jp/item/sell_cd/4580117629906.html,https://store-tsutaya.tsite.jp/images/cache/tmb/8f607984887826dc6406d0dca43a6e13.jpg,https://store-tsutaya.tsite.jp/images/cache/tmb/8116724094b4fc712a8ba925f4c23191.jpg,4580117629906,ソニー・ミュージックソリューションズ,https://www.honyaclub.com/shop/g/g19938006/,"2,200円",new
cds,8,カイト(BD付)[初回限定版],嵐,https://store-tsutaya.tsite.jp/item/sell_cd/4580117629913.html,https://store-tsutaya.tsite.jp/images/cache/tmb/4181335b08178725dbcc419364828faf.jpg,https://store-tsutaya.tsite.jp/images/cache/tmb/4411dfe414205c3d9e57a1038b92dadd.jpg,4580117629913,ソニー・ミュージックソリューションズ,https://www.honyaclub.com/shop/g/g19938008/,"2,200円",new
cds,9,NAVIGATOR,SixTONES,https://store-tsutaya.tsite.jp/item/sell_cd/4547366454734.html,https://store-tsutaya.tsite.jp/images/cache/tmb/a66932545e14b6e3d7ef8111eac93a87.jpg,https://store-tsutaya.tsite.jp/images/cache/tmb/ae62726de69233f7e655305c5c5da531.jpg,4547366454734,ソニー・ミュージックソリューションズ,https://www.honyaclub.com/shop/g/g19872575/,"1,100円",new
cds,10,NAVIGATOR(DVD付)[初回限定版],SixTONES,https://store-tsutaya.tsite.jp/item/sell_cd/4547366454710.html,https://store-tsutaya.tsite.jp/images/cache/tmb/8a18d53451a5c8bc76705b874e47bdca.jpg,https://store-tsutaya.tsite.jp/images/cache/tmb/cd65769fe4d5a552d5454cea241c51a3.jpg,4547366454710,ソニー・ミュージックソリューションズ,https://www.honyaclub.com/shop/g/g19872573/,"1,760円",new
cda,1,STRAY SHEEP,米津玄師,https://store-tsutaya.tsite.jp/item/sell_cd/4547366457933.html,https://store-tsutaya.tsite.jp/images/cache/tmb/1135a0797ddaceceb554097086710835.jpg,https://store-tsutaya.tsite.jp/images/cache/tmb/42f13da939a61295bb2d594627c32bb1.jpg,4547366457933,ソニー・ミュージックソリューションズ,https://www.honyaclub.com/shop/g/g19929549/,"3,300円",new
cda,2,STRAY SHEEP(アートブック盤)(DVD付)[初回限定版],米津玄師,https://store-tsutaya.tsite.jp/item/sell_cd/4547366457919.html,https://store-tsutaya.tsite.jp/images/cache/tmb/aaa3ed62878dcd31ec42549da13f4e1c.jpg,https://store-tsutaya.tsite.jp/images/cache/tmb/22c2ac45528dde4a6c00d077c1851c22.jpg,4547366457919,ソニー・ミュージックソリューションズ,https://www.honyaclub.com/shop/g/g19929548/,"7,480円",new
cda,3,STRAY SHEEP(アートブック盤)(BD付)[初回限定版],米津玄師,https://store-tsutaya.tsite.jp/item/sell_cd/4547366457926.html,https://store-tsutaya.tsite.jp/images/cache/tmb/9dbe5a77084015c288cf90859509f6b5.jpg,https://store-tsutaya.tsite.jp/images/cache/tmb/439755551e4cec13ca71ac1a9917b014.jpg,4547366457926,ソニー・ミュージックソリューションズ,https://www.honyaclub.com/shop/g/g19929547/,"7,480円",new
cda,4,STRAY SHEEP(おまもり盤)[初回限定版],米津玄師,https://store-tsutaya.tsite.jp/item/sell_cd/4547366457902.html,https://store-tsutaya.tsite.jp/images/cache/tmb/bbde72903ea3f2ebfd1308be81fbb461.jpg,https://store-tsutaya.tsite.jp/images/cache/tmb/cead1245c86ab5a64c98f33d903d9790.jpg,4547366457902,ソニー・ミュージックソリューションズ,https://www.honyaclub.com/shop/g/g19929546/,"4,950円",new
cda,5,LIVE : live(DVD付)[初回限定版],AK-69,https://store-tsutaya.tsite.jp/item/sell_cd/4988031385265.html,https://store-tsutaya.tsite.jp/images/cache/tmb/bf3b1af8bff15d13e747d3ba8e8bcbe0.jpg,https://store-tsutaya.tsite.jp/images/cache/tmb/c7ed0d41592188d9081cfd4a0ad6df54.jpg,4988031385265,ユニバーサル・ミュージック,https://www.honyaclub.com/shop/g/g19929483/,"4,180円",new
cda,6,朗らかな皮膚とて不服(通常盤),ずっと真夜中でいいのに。,https://store-tsutaya.tsite.jp/item/sell_cd/4988031385258.html,https://store-tsutaya.tsite.jp/images/cache/tmb/25938504d80689719b3188687155f6ec.jpg,https://store-tsutaya.tsite.jp/images/cache/tmb/44516852b9afeaf3906ef18782a8e1ba.jpg,4988031385258,ユニバーサル・ミュージック,https://www.honyaclub.com/shop/g/g19906655/,"1,980円",new
cda,7,"MAN WITH A “BEST"" MISSION(DVD付)[初回限定版]",MAN WITH A MISSION,https://store-tsutaya.tsite.jp/item/sell_cd/4547366456769.html,https://store-tsutaya.tsite.jp/images/cache/tmb/8a0d3a772862c517c03ceca25b0cd362.jpg,https://store-tsutaya.tsite.jp/images/cache/tmb/1659167d55e633dd4ea7c0fc2f7753d7.jpg,4547366456769,ソニー・ミュージックソリューションズ,https://www.honyaclub.com/shop/g/g19894063/,"3,772円",down
cda,8,盗作(通常盤),ヨルシカ,https://store-tsutaya.tsite.jp/item/sell_cd/4988031384374.html,https://store-tsutaya.tsite.jp/images/cache/tmb/715d9d8aa367e629cf71def6a43390f2.jpg,https://store-tsutaya.tsite.jp/images/cache/tmb/d3578a3c5e5705f874e80b7245bdb0b7.jpg,4988031384374,ユニバーサル・ミュージック,https://www.honyaclub.com/shop/g/g19902456/,"3,300円",new
cda,9,Traveler(通常盤),Official髭男dism,https://store-tsutaya.tsite.jp/item/sell_cd/4988013018822.html,https://store-tsutaya.tsite.jp/images/cache/tmb/b0ad19df986fcac57802884a1376cbf4.jpg,https://store-tsutaya.tsite.jp/images/cache/tmb/bf4aad78caca5dfb9d54ecca75e6c15d.jpg,4988013018822,ポニーキャニオン,https://www.honyaclub.com/shop/g/g19672677/,"3,080円",new
cda,10,"MAN WITH A “BEST"" MISSION",MAN WITH A MISSION,https://store-tsutaya.tsite.jp/item/sell_cd/4547366456776.html,https://store-tsutaya.tsite.jp/images/cache/tmb/f7b26d767c6a4a015040ea067001065d.jpg,https://store-tsutaya.tsite.jp/images/cache/tmb/a458efad4a7927041f0a76476e27c576.jpg,4547366456776,ソニー・ミュージックソリューションズ,https://www.honyaclub.com/shop/g/g19894064/,"3,222円",down
dvd,1,Hey! Say! JUMP LIVE TOUR 2019-2020 PARADE,Hey!Say!JUMP,https://store-tsutaya.tsite.jp/item/sell_dvd/4580117629814.html,https://store-tsutaya.tsite.jp/images/cache/tmb/dd9cb1e942c4a28858e126ae66a20e18.jpg,https://store-tsutaya.tsite.jp/images/cache/tmb/4b8f2a87b48abecadd43d8b8bf58a73b.jpg,4580117629814,ソニー・ミュージックソリューションズ,https://www.honyaclub.com/shop/g/g19945036/,"7,480円",new
dvd,2,Hey! Say! JUMP LIVE TOUR 2019-2020 PARADE,Hey!Say!JUMP,https://store-tsutaya.tsite.jp/item/sell_dvd/4580117629838.html,https://store-tsutaya.tsite.jp/images/cache/tmb/f5c933288bf9ae5536ced5ab362232d1.jpg,https://store-tsutaya.tsite.jp/images/cache/tmb/df20971bd9ea995b264a0a34618151e8.jpg,4580117629838,ソニー・ミュージックソリューションズ,https://www.honyaclub.com/shop/g/g19945038/,"7,480円",new
dvd,3,Hey! Say! JUMP LIVE TOUR 2019-2020 PARADE(通常盤),Hey!Say!JUMP,https://store-tsutaya.tsite.jp/item/sell_dvd/4580117629821.html,https://store-tsutaya.tsite.jp/images/cache/tmb/c9823efba7062bcb7117f193532d380b.jpg,https://store-tsutaya.tsite.jp/images/cache/tmb/ba2e48f12602aae14f7f022aacfd2ea2.jpg,4580117629821,ソニー・ミュージックソリューションズ,https://www.honyaclub.com/shop/g/g19945037/,"5,280円",new
dvd,4,Hey! Say! JUMP LIVE TOUR 2019-2020 PARADE(通常盤),Hey!Say!JUMP,https://store-tsutaya.tsite.jp/item/sell_dvd/4580117629845.html,https://store-tsutaya.tsite.jp/images/cache/tmb/e4e3a38c039b50d9cfebdce80e3f0855.jpg,https://store-tsutaya.tsite.jp/images/cache/tmb/c6cad6630585fc36374c025d396f3692.jpg,4580117629845,ソニー・ミュージックソリューションズ,https://www.honyaclub.com/shop/g/g19945039/,"5,280円",new
dvd,5,滝沢歌舞伎ZERO,Snow Man,https://store-tsutaya.tsite.jp/item/sell_dvd/4580117629685.html,https://store-tsutaya.tsite.jp/images/cache/tmb/354b7d05c79c582e695fa85b377e1d49.jpg,https://store-tsutaya.tsite.jp/images/cache/tmb/35f532e09f5d165451132fba81f153d7.jpg,4580117629685,ソニー・ミュージックソリューションズ,https://www.honyaclub.com/shop/g/g19832938/,"6,600円",new
dvd,6,アナと雪の女王2(数量限定),（ディズニー）,https://store-tsutaya.tsite.jp/item/sell_dvd/4959241777324.html,https://store-tsutaya.tsite.jp/images/cache/tmb/328ff3212ba436943d86d52da891a905.jpg,https://store-tsutaya.tsite.jp/images/cache/tmb/402a34b251e10fc555331e333c05dad2.jpg,4959241777324,ウォルト・ディズニー・ジャパン,https://www.honyaclub.com/shop/g/g19852870/,"3,080円",down
dvd,7,滝沢歌舞伎ZERO,Snow Man,https://store-tsutaya.tsite.jp/item/sell_dvd/4580117629692.html,https://store-tsutaya.tsite.jp/images/cache/tmb/37d967af8d66925db74849f61b6dd9aa.jpg,https://store-tsutaya.tsite.jp/images/cache/tmb/3cadfb9d1a28d2aa307fda91c11b3770.jpg,4580117629692,ソニー・ミュージックソリューションズ,https://www.honyaclub.com/shop/g/g19832939/,"6,600円",new
dvd,8,アナと雪の女王2 MovieNEX コンプリート・ケース付き(数量限定),（ディズニー）,https://store-tsutaya.tsite.jp/item/sell_dvd/4959241777317.html,https://store-tsutaya.tsite.jp/images/cache/tmb/c293f8da8f68d10612a6b8b5c2c99305.jpg,https://store-tsutaya.tsite.jp/images/cache/tmb/7e145932a88a90cf1b0205070844ee55.jpg,4959241777317,ウォルト・ディズニー・ジャパン,https://www.honyaclub.com/shop/g/g19852865/,"4,400円",down
dvd,9,"LDH PERFECT YEAR 2020 COUNTDOWN LIVE 2019→2020 “RISING""",EXILE,https://store-tsutaya.tsite.jp/item/sell_dvd/4988064771615.html,https://store-tsutaya.tsite.jp/images/cache/tmb/743866176e9c6cb975327447dd898106.jpg,https://store-tsutaya.tsite.jp/images/cache/tmb/163a5fffb51066f1ef06f5915c20bfad.jpg,4988064771615,エイベックス・エンタテインメント,https://www.honyaclub.com/shop/g/g19922076/,"9,878円",new
dvd,10,1917 命をかけた伝令 ブルーレイ+DVD,ジョージ・マッケイ,https://store-tsutaya.tsite.jp/item/sell_dvd/4988102876296.html,https://store-tsutaya.tsite.jp/images/cache/tmb/e1799d3b5ce22bde7360f6bbc4634533.jpg,https://store-tsutaya.tsite.jp/images/cache/tmb/64bb9be6df8beee71b4c70cdd4ad3e72.jpg,4988102876296,NBCユニバーサル・エンターテイメントジャパン,https://www.honyaclub.com/shop/g/g19912392/,"4,980円",new
game,1,あつまれ どうぶつの森,Nintendo Switch,https://store-tsutaya.tsite.jp/item/sell_game/4902370545319.html,https://store-tsutaya.tsite.jp/images/cache/tmb/913b7075d498af84c2eb8ae17a475654.jpg,https://store-tsutaya.tsite.jp/images/cache/tmb/c4a3ac9aa436b3fc4fd268b19dd1b741.jpg,4902370545319,任天堂,--,--,up
game,2,Ghost of Tsushima,PS4,https://store-tsutaya.tsite.jp/item/sell_game/4948872311755.html,https://store-tsutaya.tsite.jp/images/cache/tmb/0ac5935a442cda4e732fd8a11aa38eba.jpg,https://store-tsutaya.tsite.jp/images/cache/tmb/2c3769be9bb70870ba5b04449b0bd86a.jpg,4948872311755,ソニー・インタラクティブエンタテインメント,--,--,down
game,3,リングフィット アドベンチャー,Nintendo Switch,https://store-tsutaya.tsite.jp/item/sell_game/4902370543278.html,https://store-tsutaya.tsite.jp/images/cache/tmb/e6abe76933a692a541d33ac4f89f25cb.jpg,https://store-tsutaya.tsite.jp/images/cache/tmb/3784d54d8c60a17f83b0469b34e81ddb.jpg,4902370543278,任天堂,--,--,up
game,4,eBASEBALLパワフルプロ野球2020,Nintendo Switch,https://store-tsutaya.tsite.jp/item/sell_game/4988602172850.html,https://store-tsutaya.tsite.jp/images/cache/tmb/0577f218835f207cc22c5d3fc47638c1.jpg,https://store-tsutaya.tsite.jp/images/cache/tmb/05187004fac0df424a25bea3475daf63.jpg,4988602172850,コナミ,--,--,up
game,5,機動戦士ガンダム EXTREME VS. マキシブーストON,PS4,https://store-tsutaya.tsite.jp/item/sell_game/4582528412542.html,https://store-tsutaya.tsite.jp/images/cache/tmb/30ba7f0b7c0e70e74fd3f52bef7478f8.jpg,https://store-tsutaya.tsite.jp/images/cache/tmb/c63bd3d1260aa4e99e5e1439805d0eba.jpg,4582528412542,バンダイナムコエンターテインメント,--,--,new
game,6,ペーパーマリオ オリガミキング,Nintendo Switch,https://store-tsutaya.tsite.jp/item/sell_game/4902370546026.html,https://store-tsutaya.tsite.jp/images/cache/tmb/97b5935a297b856a32c516c1574a1254.jpg,https://store-tsutaya.tsite.jp/images/cache/tmb/bde6157e2961c06099e59f7b424fe384.jpg,4902370546026,任天堂,--,--,down
game,7,世界のアソビ大全51,Nintendo Switch,https://store-tsutaya.tsite.jp/item/sell_game/4902370545784.html,https://store-tsutaya.tsite.jp/images/cache/tmb/00e6b498d905a365648235789cdfcd93.jpg,https://store-tsutaya.tsite.jp/images/cache/tmb/8f2887f67682acce5df201733e9dea18.jpg,4902370545784,任天堂,--,--,stay
game,8,eBASEBALLパワフルプロ野球2020,PS4,https://store-tsutaya.tsite.jp/item/sell_game/4988602172843.html,https://store-tsutaya.tsite.jp/images/cache/tmb/3a883710fe02ff482b1b0d1110de4b18.jpg,https://store-tsutaya.tsite.jp/images/cache/tmb/7234e381a398ae7688e87a529a7a8e2b.jpg,4988602172843,コナミ,--,--,down
game,9,マリオカート8 デラックス,Nintendo Switch,https://store-tsutaya.tsite.jp/item/sell_game/4902370536485.html,https://store-tsutaya.tsite.jp/images/cache/tmb/f9b4e44b7158a4c0db9ba68faada04dc.jpg,https://store-tsutaya.tsite.jp/images/cache/tmb/b6a837e26c31b828325fdfe7dca90c5b.jpg,4902370536485,任天堂,--,--,stay
game,10,Minecraft,Nintendo Switch,https://store-tsutaya.tsite.jp/item/sell_game/4549576094113.html,https://store-tsutaya.tsite.jp/images/cache/tmb/6041460ba41ddb8ae37b11465add17f7.jpg,https://store-tsutaya.tsite.jp/images/cache/tmb/2c4d7eca9a39494877e8ff4cca80580f.jpg,4549576094113,日本マイクロソフト株式会社,--,--,new
