﻿cds,1,ひとりじゃない(D)[初回限定版],セブンティーン,https://store-tsutaya.tsite.jp/item/sell_cd/4589824540511.html,https://store-tsutaya.tsite.jp/images/cache/tmb/4c2bf10fcb30f0b798c0c890910ccd96.jpg,https://store-tsutaya.tsite.jp/images/cache/tmb/d1d28c5a952bf3b88cf05d414c9812ab.jpg,4589824540511,その他,https://www.honyaclub.com/shop/g/g20160988/,"1,650円",new
cds,2,ひとりじゃない(A)[初回限定版],セブンティーン,https://store-tsutaya.tsite.jp/item/sell_cd/4589824540450.html,https://store-tsutaya.tsite.jp/images/cache/tmb/258cf9744c101e12f0dac5e0931b4a3b.jpg,https://store-tsutaya.tsite.jp/images/cache/tmb/8de2b21342e7f1537aafd73b7a0556b8.jpg,4589824540450,その他,https://www.honyaclub.com/shop/g/g20160985/,"1,650円",new
cds,3,ひとりじゃない(通常盤),セブンティーン,https://store-tsutaya.tsite.jp/item/sell_cd/4589824540436.html,https://store-tsutaya.tsite.jp/images/cache/tmb/447244a9a3a4ecde55eebd7514efe959.jpg,https://store-tsutaya.tsite.jp/images/cache/tmb/af55c1ce3a3d72062b43ce6844c7f357.jpg,4589824540436,その他,https://www.honyaclub.com/shop/g/g20160984/,"1,320円",new
cds,4,Take a picture/Poppin' Shakin'(A)(DVD付)[初回限定版],NiziU,https://store-tsutaya.tsite.jp/item/sell_cd/4547366498264.html,https://store-tsutaya.tsite.jp/images/cache/tmb/aa467f358322432f6fb6967101291f9c.jpg,https://store-tsutaya.tsite.jp/images/cache/tmb/2c87ba0282a6bb883b5e6a37179f5ef6.jpg,4547366498264,ソニー・ミュージックソリューションズ,https://www.honyaclub.com/shop/g/g20160951/,"2,100円",up
cds,5,ひとりじゃない(C)[初回限定版],セブンティーン,https://store-tsutaya.tsite.jp/item/sell_cd/4589824540498.html,https://store-tsutaya.tsite.jp/images/cache/tmb/8c395b42d42286ddfaccef769fb9f1ab.jpg,https://store-tsutaya.tsite.jp/images/cache/tmb/7fb149f9f49132b849f1e605b1062b2f.jpg,4589824540498,その他,https://www.honyaclub.com/shop/g/g20160987/,"1,650円",new
cds,6,ひとりじゃない(B)[初回限定版],セブンティーン,https://store-tsutaya.tsite.jp/item/sell_cd/4589824540474.html,https://store-tsutaya.tsite.jp/images/cache/tmb/806d341f979cc70f4363f7a16b24c945.jpg,https://store-tsutaya.tsite.jp/images/cache/tmb/db46c6c17626efc8618928991a8ebcba.jpg,4589824540474,その他,https://www.honyaclub.com/shop/g/g20160986/,"1,650円",new
cds,7,BAN(A)(BD付),櫻坂46,https://store-tsutaya.tsite.jp/item/sell_cd/4547366498608.html,https://store-tsutaya.tsite.jp/images/cache/tmb/6a92d65c95396784580b05a948b1a5c1.jpg,https://store-tsutaya.tsite.jp/images/cache/tmb/6ba1c265d48cb2acdab913333cff0e92.jpg,4547366498608,ソニー・ミュージックソリューションズ,https://www.honyaclub.com/shop/g/g20189311/,"1,900円",down
cds,8,BAN(B)(BD付),櫻坂46,https://store-tsutaya.tsite.jp/item/sell_cd/4547366498615.html,https://store-tsutaya.tsite.jp/images/cache/tmb/808b76dd473e085822a01a838cba77f0.jpg,https://store-tsutaya.tsite.jp/images/cache/tmb/2663f04808fa0f860a43ad08e1f43d70.jpg,4547366498615,ソニー・ミュージックソリューションズ,https://www.honyaclub.com/shop/g/g20189312/,"1,900円",down
cds,9,Take a picture/Poppin' Shakin',NiziU,https://store-tsutaya.tsite.jp/item/sell_cd/4547366498288.html,https://store-tsutaya.tsite.jp/images/cache/tmb/8047248ca984d14f1bb932f86eab0121.jpg,https://store-tsutaya.tsite.jp/images/cache/tmb/e0cc32c9921914b9fa338b420a5668d3.jpg,4547366498288,ソニー・ミュージックソリューションズ,https://www.honyaclub.com/shop/g/g20160953/,"1,599円",down
cds,10,BAN(C)(BD付),櫻坂46,https://store-tsutaya.tsite.jp/item/sell_cd/4547366498622.html,https://store-tsutaya.tsite.jp/images/cache/tmb/8685bd2ed4f596bb30ee994e904ccf84.jpg,https://store-tsutaya.tsite.jp/images/cache/tmb/bc9d738f45dce9d36bbc0ce9af88e502.jpg,4547366498622,ソニー・ミュージックソリューションズ,https://www.honyaclub.com/shop/g/g20189313/,"1,900円",down
cda,1,Enchant,,,https://store-tsutaya.tsite.jp/images/cache/tmb/f23ee926f844da48ff1d49c2cb1dcf57.png,,,,,--,new
cda,2,「呪術廻戦」オリジナル・サウンドトラック,呪術廻戦,https://store-tsutaya.tsite.jp/item/sell_cd/4988104115669.html,https://store-tsutaya.tsite.jp/images/cache/tmb/164e0c5b67e748430977fab9ba57295b.jpg,https://store-tsutaya.tsite.jp/images/cache/tmb/fba2f3b0c0d79824ef33a8608a6ee3d2.jpg,4988104115669,東宝,https://www.honyaclub.com/shop/g/g20144256/,"3,630円",new
cda,3,さだ丼 ~新自分風土記III~,さだまさし,https://store-tsutaya.tsite.jp/item/sell_cd/4988002904334.html,https://store-tsutaya.tsite.jp/images/cache/tmb/d03bba515599b82eaa431e08c65c170d.jpg,https://store-tsutaya.tsite.jp/images/cache/tmb/8ae6917681578ae1bcbbe3a05925fe78.jpg,4988002904334,ビクターエンタテインメント,https://www.honyaclub.com/shop/g/g20153108/,"3,850円",new
cda,4,One Last Kiss,宇多田ヒカル,https://store-tsutaya.tsite.jp/item/sell_cd/4547366488388.html,https://store-tsutaya.tsite.jp/images/cache/tmb/23110ba5fd7e849fe77564adfee7656a.jpg,https://store-tsutaya.tsite.jp/images/cache/tmb/53d6ac35aea8000c53fdffd85274697b.jpg,4547366488388,ソニー・ミュージックソリューションズ,https://www.honyaclub.com/shop/g/g20110953/,"2,200円",stay
cda,5,Walpurgis(通常盤),Aimer,https://store-tsutaya.tsite.jp/item/sell_cd/4547366488562.html,https://store-tsutaya.tsite.jp/images/cache/tmb/9b908d51cf7c2703f2b3bdbb2eaac24c.jpg,https://store-tsutaya.tsite.jp/images/cache/tmb/0b81ad763896460aa4ab876a88785e3d.jpg,4547366488562,ソニー・ミュージックソリューションズ,https://www.honyaclub.com/shop/g/g20099175/,"3,300円",down
cda,6,Walpurgis(B)(DVD付)[初回限定版],Aimer,https://store-tsutaya.tsite.jp/item/sell_cd/4547366488579.html,https://store-tsutaya.tsite.jp/images/cache/tmb/a3c63538790f3c806291ae0e6cd13467.jpg,https://store-tsutaya.tsite.jp/images/cache/tmb/06c0b82d4ce1d85124bcaab13ab0eeab.jpg,4547366488579,ソニー・ミュージックソリューションズ,https://www.honyaclub.com/shop/g/g20099174/,"3,960円",down
cda,7,ケツノパラダイス,ケツメイシ,https://store-tsutaya.tsite.jp/item/sell_cd/4988064966349.html,https://store-tsutaya.tsite.jp/images/cache/tmb/b9f8d5ac19173fd8810057d7461a2e69.jpg,https://store-tsutaya.tsite.jp/images/cache/tmb/72f8f04a0546cf88155c67338a2d7846.jpg,4988064966349,エイベックス・エンタテインメント,https://www.honyaclub.com/shop/g/g20072662/,"3,520円",stay
cda,8,EGUISM(通常盤),江口拓也,https://store-tsutaya.tsite.jp/item/sell_cd/4540774158744.html,https://store-tsutaya.tsite.jp/images/cache/tmb/a4d7fac4615af2e766eeec677c7328ef.jpg,https://store-tsutaya.tsite.jp/images/cache/tmb/efc4c668611e246b23dba6aee9119830.jpg,4540774158744,バンダイナムコアーツ,https://www.honyaclub.com/shop/g/g20153036/,"2,200円",new
cda,9,Let The Bad Times Roll,オフスプリング,https://store-tsutaya.tsite.jp/item/sell_cd/4988031424681.html,https://store-tsutaya.tsite.jp/images/cache/tmb/32fe8b7661ff9fec74388437f4b997fb.jpg,https://store-tsutaya.tsite.jp/images/cache/tmb/c47c1f6d2d63b7efef1c700629701da0.jpg,4988031424681,ユニバーサル・ミュージック,https://www.honyaclub.com/shop/g/g20170002/,"3,300円",down
cda,10,STRAY SHEEP,米津玄師,https://store-tsutaya.tsite.jp/item/sell_cd/4547366457933.html,https://store-tsutaya.tsite.jp/images/cache/tmb/1135a0797ddaceceb554097086710835.jpg,https://store-tsutaya.tsite.jp/images/cache/tmb/42f13da939a61295bb2d594627c32bb1.jpg,4547366457933,ソニー・ミュージックソリューションズ,https://www.honyaclub.com/shop/g/g19929549/,"3,300円",new
dvd,1,ワンダーウーマン 1984 ブルーレイ&DVDセット,ガル・ガドット,https://store-tsutaya.tsite.jp/item/sell_dvd/4548967449006.html,https://store-tsutaya.tsite.jp/images/cache/tmb/37766129ad13109020f2ee8c84193754.jpg,https://store-tsutaya.tsite.jp/images/cache/tmb/8ba7917fa2960cd1b115ff970face72d.jpg,4548967449006,NBCユニバーサル・エンターテイメントジャパン,https://www.honyaclub.com/shop/g/g20167936/,"4,980円",new
dvd,2,"Fujii Kaze ""NAN-NAN SHOW 2020"" HELP EVER HURT NEVER",藤井風,https://store-tsutaya.tsite.jp/item/sell_dvd/4988031423776.html,https://store-tsutaya.tsite.jp/images/cache/tmb/af29c991f89b21ecede1197046547a48.jpg,https://store-tsutaya.tsite.jp/images/cache/tmb/e1ebcc7d285e519cfa47d8eac2adf3dc.jpg,4988031423776,ユニバーサル・ミュージック,https://www.honyaclub.com/shop/g/g20189304/,"7,000円",new
dvd,3,VIDEO COMPLETE-ACT.3,UVERworld,https://store-tsutaya.tsite.jp/item/sell_dvd/4547366486650.html,https://store-tsutaya.tsite.jp/images/cache/tmb/e52c178d2d158a9ce435e4fc0fae2eba.jpg,https://store-tsutaya.tsite.jp/images/cache/tmb/403d4e80e9d475d4eee1cb6c9ef29950.jpg,4547366486650,ソニー・ミュージックソリューションズ,https://www.honyaclub.com/shop/g/g20092373/,"8,030円",new
dvd,4,LIVE×ONLINE BEYOND THE BORDER,E-girls,https://store-tsutaya.tsite.jp/item/sell_dvd/4988064773428.html,https://store-tsutaya.tsite.jp/images/cache/tmb/c6cc1041bb5cbe1267c343af63b8612f.jpg,https://store-tsutaya.tsite.jp/images/cache/tmb/d13b74cdc3941a399e56577b5f121ee3.jpg,4988064773428,エイベックス・エンタテインメント,https://www.honyaclub.com/shop/g/g20177917/,"7,348円",new
dvd,5,新解釈・三國志,,https://store-tsutaya.tsite.jp/item/sell_dvd/4988021718547.html,https://store-tsutaya.tsite.jp/images/cache/tmb/0f414793f0ffdfd34250be8666f925e1.jpg,https://store-tsutaya.tsite.jp/images/cache/tmb/b87ba0a69902c64a6b07f5cc440081ee.jpg,4988021718547,バップ,https://www.honyaclub.com/shop/g/g20167886/,"4,950円",new
dvd,6,「おかあさんといっしょ」最新ソングブック ブー!スカ・パーティ,花田ゆういちろう,https://store-tsutaya.tsite.jp/item/sell_dvd/4988013507692.html,https://store-tsutaya.tsite.jp/images/cache/tmb/46fe2ce06c3b86381f8528bdd62ef5eb.jpg,https://store-tsutaya.tsite.jp/images/cache/tmb/c985c5bbd02c9aa3b70d64a073abd25d.jpg,4988013507692,ポニーキャニオン,https://www.honyaclub.com/shop/g/g20152975/,"3,520円",new
dvd,7,氷川きよしスペシャルコンサート2020~きよしこの夜Vol.20,氷川きよし,https://store-tsutaya.tsite.jp/item/sell_dvd/4549767124780.html,https://store-tsutaya.tsite.jp/images/cache/tmb/e455eeff7bed6be59688b43decc6582a.jpg,https://store-tsutaya.tsite.jp/images/cache/tmb/e0fb0a653b58b93107d409f8cd3e1a6a.jpg,4549767124780,日本コロムビア,https://www.honyaclub.com/shop/g/g20207046/,"4,800円",new
dvd,8,新解釈・三國志 豪華版,,https://store-tsutaya.tsite.jp/item/sell_dvd/4988021718530.html,https://store-tsutaya.tsite.jp/images/cache/tmb/7162b47c8fc1c8e5450bd16d0665f80c.jpg,https://store-tsutaya.tsite.jp/images/cache/tmb/7c70431f4800e6bd40ede37d13e57277.jpg,4988021718530,バップ,https://www.honyaclub.com/shop/g/g20167885/,"8,800円",new
dvd,9,滝沢歌舞伎 ZERO 2020 The Movie,Ｓｎｏｗ　Ｍａｎ,https://store-tsutaya.tsite.jp/item/sell_dvd/4988064273805.html,https://store-tsutaya.tsite.jp/images/cache/tmb/7a97c12cc1c7de11a7d88b7ed6d3e576.jpg,https://store-tsutaya.tsite.jp/images/cache/tmb/f9a70b9fbbf2f7ea513c8807a214589e.jpg,4988064273805,エイベックス・エンタテインメント,https://www.honyaclub.com/shop/g/g20177921/,"7,150円",down
dvd,10,VIDEO COMPLETE-ACT.3,UVERworld,https://store-tsutaya.tsite.jp/item/sell_dvd/4547366486636.html,https://store-tsutaya.tsite.jp/images/cache/tmb/65397f681bf24575ba8976d59f3d554c.jpg,https://store-tsutaya.tsite.jp/images/cache/tmb/b5b05d791c4ba0a030341e24ec2e9f6d.jpg,4547366486636,ソニー・ミュージックソリューションズ,https://www.honyaclub.com/shop/g/g20092375/,"8,580円",new
game,1,ニーア レプリカント ver.1.22474487139...,PS4,https://store-tsutaya.tsite.jp/item/sell_game/4988601010832.html,https://store-tsutaya.tsite.jp/images/cache/tmb/aa9f71b4fdc7a61c9200678e80d883b7.jpg,https://store-tsutaya.tsite.jp/images/cache/tmb/42ee6860990b2eac129d486168d309d6.jpg,4988601010832,スクウェア・エニックス,--,--,new
game,2,モンスターハンターライズ,Nintendo Switch,https://store-tsutaya.tsite.jp/item/sell_game/4976219115803.html,https://store-tsutaya.tsite.jp/images/cache/tmb/075c9a8565998b1ad6cca0f499fd8065.jpg,https://store-tsutaya.tsite.jp/images/cache/tmb/b1d9ee2ddfe392385da32efabeac032d.jpg,4976219115803,カプコン,--,--,down
game,3,スーパーマリオ 3Dワールド + フューリーワールド,Nintendo Switch,https://store-tsutaya.tsite.jp/item/sell_game/4902370547115.html,https://store-tsutaya.tsite.jp/images/cache/tmb/7e4b253e3021c9a0d51ee2a3a715bcae.jpg,https://store-tsutaya.tsite.jp/images/cache/tmb/d1227a4c593972ae6d3ec1151b4933db.jpg,4902370547115,任天堂,--,--,stay
game,4,桃太郎電鉄 ~昭和 平成 令和も定番!~,Nintendo Switch,https://store-tsutaya.tsite.jp/item/sell_game/4988602173222.html,https://store-tsutaya.tsite.jp/images/cache/tmb/01fde22f14cb4afbb0a9086e46777e49.jpg,https://store-tsutaya.tsite.jp/images/cache/tmb/01ff55a63666562c0b8ddfe7a71fac9a.jpg,4988602173222,コナミ,--,--,stay
game,5,Minecraft,Nintendo Switch,https://store-tsutaya.tsite.jp/item/sell_game/4549576094113.html,https://store-tsutaya.tsite.jp/images/cache/tmb/6041460ba41ddb8ae37b11465add17f7.jpg,https://store-tsutaya.tsite.jp/images/cache/tmb/2c4d7eca9a39494877e8ff4cca80580f.jpg,4549576094113,日本マイクロソフト株式会社,--,--,up
game,6,JUDGE EYES:死神の遺言 Remastered,PlayStation5,https://store-tsutaya.tsite.jp/item/sell_game/4974365837051.html,https://store-tsutaya.tsite.jp/images/cache/tmb/21223ec55bcb67beecf525c682a042ea.jpg,https://store-tsutaya.tsite.jp/images/cache/tmb/248ab5250d6b8e8d0b575e68fccc4122.jpg,4974365837051,セガ,--,--,new
game,7,あつまれ どうぶつの森,Nintendo Switch,https://store-tsutaya.tsite.jp/item/sell_game/4902370545319.html,https://store-tsutaya.tsite.jp/images/cache/tmb/913b7075d498af84c2eb8ae17a475654.jpg,https://store-tsutaya.tsite.jp/images/cache/tmb/c4a3ac9aa436b3fc4fd268b19dd1b741.jpg,4902370545319,任天堂,--,--,stay
game,8,リングフィット アドベンチャー,Nintendo Switch,https://store-tsutaya.tsite.jp/item/sell_game/4902370543278.html,https://store-tsutaya.tsite.jp/images/cache/tmb/e6abe76933a692a541d33ac4f89f25cb.jpg,https://store-tsutaya.tsite.jp/images/cache/tmb/3784d54d8c60a17f83b0469b34e81ddb.jpg,4902370543278,任天堂,--,--,up
game,9,マリオカート8 デラックス,Nintendo Switch,https://store-tsutaya.tsite.jp/item/sell_game/4902370536485.html,https://store-tsutaya.tsite.jp/images/cache/tmb/f9b4e44b7158a4c0db9ba68faada04dc.jpg,https://store-tsutaya.tsite.jp/images/cache/tmb/b6a837e26c31b828325fdfe7dca90c5b.jpg,4902370536485,任天堂,--,--,up
game,10,大乱闘スマッシュブラザーズ SPECIAL,Nintendo Switch,https://store-tsutaya.tsite.jp/item/sell_game/4902370540734.html,https://store-tsutaya.tsite.jp/images/cache/tmb/4346942721b6a95e9fd18635954c7cfe.jpg,https://store-tsutaya.tsite.jp/images/cache/tmb/2b8f0a352c249987b000f8c6172cb32d.jpg,4902370540734,任天堂,--,--,down
