﻿cds,1,KANZAI BOYA(B)[初回限定版],KinKi Kids,https://store-tsutaya.tsite.jp/item/sell_cd/4580117629739.html,https://store-tsutaya.tsite.jp/images/cache/tmb/2833da77670d34d9ef51b2034415a393.jpg,https://store-tsutaya.tsite.jp/images/cache/tmb/2f3947b5aebf559011f4a19abd3d8394.jpg,4580117629739,ソニー・ミュージックソリューションズ,https://www.honyaclub.com/shop/g/g19859921/,"3,740円",new
cds,2,KANZAI BOYA(通常盤),KinKi Kids,https://store-tsutaya.tsite.jp/item/sell_cd/4580117629753.html,https://store-tsutaya.tsite.jp/images/cache/tmb/afe43e29d120a9a75ac71dacaac86564.jpg,https://store-tsutaya.tsite.jp/images/cache/tmb/9430f040f63e09c743569dfaa1547987.jpg,4580117629753,ソニー・ミュージックソリューションズ,https://www.honyaclub.com/shop/g/g19859923/,990円,new
cds,3,KANZAI BOYA(A)(BD付)[初回限定版],KinKi Kids,https://store-tsutaya.tsite.jp/item/sell_cd/4580117629746.html,https://store-tsutaya.tsite.jp/images/cache/tmb/752a436eb725bb7f516aa9427f227ca8.jpg,https://store-tsutaya.tsite.jp/images/cache/tmb/800d0828d59075b47ab93d5443ff579a.jpg,4580117629746,ソニー・ミュージックソリューションズ,https://www.honyaclub.com/shop/g/g19859920/,"1,650円",new
cds,4,KANZAI BOYA(A)(DVD付)[初回限定版],KinKi Kids,https://store-tsutaya.tsite.jp/item/sell_cd/4580117629722.html,https://store-tsutaya.tsite.jp/images/cache/tmb/607f9bb6fc70d02db2844bcfa6e7ce82.jpg,https://store-tsutaya.tsite.jp/images/cache/tmb/4033c4099f66ab681437eef454a74650.jpg,4580117629722,ソニー・ミュージックソリューションズ,https://www.honyaclub.com/shop/g/g19859919/,"1,540円",new
cds,5,Mazy Night(A)(DVD付)[初回限定版],King&Prince,https://store-tsutaya.tsite.jp/item/sell_cd/4988031383087.html,https://store-tsutaya.tsite.jp/images/cache/tmb/b5c945b0daa91e1e26d81ada8706d2fa.jpg,https://store-tsutaya.tsite.jp/images/cache/tmb/3c31db305122726f9e7319e8495d7193.jpg,4988031383087,ユニバーサル・ミュージック,https://www.honyaclub.com/shop/g/g19847278/,"1,650円",new
cds,6,Mazy Night(B)(DVD付)[初回限定版],King&Prince,https://store-tsutaya.tsite.jp/item/sell_cd/4988031383094.html,https://store-tsutaya.tsite.jp/images/cache/tmb/66fc6f2dfa08b1e9ccec0332a47f843b.jpg,https://store-tsutaya.tsite.jp/images/cache/tmb/4a5319580d61dc6a36e2350b8462c36e.jpg,4988031383094,ユニバーサル・ミュージック,https://www.honyaclub.com/shop/g/g19847279/,"1,650円",new
cds,7,裸の心,あいみょん,https://store-tsutaya.tsite.jp/item/sell_cd/4943674310173.html,https://store-tsutaya.tsite.jp/images/cache/tmb/bb361474006ccd70691666b55cbde9cb.jpg,https://store-tsutaya.tsite.jp/images/cache/tmb/bf8d4a49e1d58b0614d524ead39a75c8.jpg,4943674310173,ソニー・ミュージックソリューションズ,https://www.honyaclub.com/shop/g/g19859930/,"1,100円",new
cds,8,Mazy Night(通常盤),King&Prince,https://store-tsutaya.tsite.jp/item/sell_cd/4988031383100.html,https://store-tsutaya.tsite.jp/images/cache/tmb/285f848c14a92098a57c628a7c72a371.jpg,https://store-tsutaya.tsite.jp/images/cache/tmb/f0ea34df8e4027742a08369eae607b07.jpg,4988031383100,ユニバーサル・ミュージック,https://www.honyaclub.com/shop/g/g19847280/,"1,100円",new
cds,9,紅蓮華(期間生産限定盤)(DVD付)[期間限定版],LiSA,https://store-tsutaya.tsite.jp/item/sell_cd/4547366408195.html,https://store-tsutaya.tsite.jp/images/cache/tmb/426198a38ab6b9692a0832aacd2edea2.jpg,https://store-tsutaya.tsite.jp/images/cache/tmb/ee5c89aa85b3c9bd57fa4e6a39c3d3f5.jpg,4547366408195,ソニー・ミュージックソリューションズ,https://www.honyaclub.com/shop/g/g19597843/,"1,760円",down
cds,10,筑波の寛太郎/あれが沓掛時次郎,福田こうへい,https://store-tsutaya.tsite.jp/item/sell_cd/4988003564506.html,https://store-tsutaya.tsite.jp/images/cache/tmb/de3a77dfac82b221627e3a6e8fabcc67.jpg,https://store-tsutaya.tsite.jp/images/cache/tmb/e0a5e77e65522337b6effe8c23dee3b9.jpg,4988003564506,キングレコード,https://www.honyaclub.com/shop/g/g19860776/,"1,400円",new
cda,1,"THANK GOD, THERE ARE HUNDREDS OF WAYS TO KiLL ENEMiES[初回限定版]",SiM,https://store-tsutaya.tsite.jp/item/sell_cd/4988031378656.html,https://store-tsutaya.tsite.jp/images/cache/tmb/da4ac7a2309d1e640f096d0599dfc97d.jpg,https://store-tsutaya.tsite.jp/images/cache/tmb/e1f1b981a65fb4a8c63b470f8c03389d.jpg,4988031378656,ユニバーサル・ミュージック,https://www.honyaclub.com/shop/g/g19848113/,"3,960円",new
cda,2,LOVE FADERS(Limited EditionA)(DVD付)[初回限定版],ENDRECHERI,https://store-tsutaya.tsite.jp/item/sell_cd/4580117629852.html,https://store-tsutaya.tsite.jp/images/cache/tmb/5b96d553021bda00a76a925abdbd7d2f.jpg,https://store-tsutaya.tsite.jp/images/cache/tmb/335fe1926634a1f41b0b67c232764cfc.jpg,4580117629852,ソニー・ミュージックソリューションズ,https://www.honyaclub.com/shop/g/g19912448/,"4,070円",new
cda,3,LOVE FADERS(Original Edition),ENDRECHERI,https://store-tsutaya.tsite.jp/item/sell_cd/4580117629876.html,https://store-tsutaya.tsite.jp/images/cache/tmb/58d5f3710a2e9ecf838db19823ae6214.jpg,https://store-tsutaya.tsite.jp/images/cache/tmb/decee8d17574e24fc320f9cd09e599eb.jpg,4580117629876,ソニー・ミュージックソリューションズ,https://www.honyaclub.com/shop/g/g19912450/,"3,520円",new
cda,4,LOVE FADERS(Limited EditionB)(DVD付)[初回限定版],ENDRECHERI,https://store-tsutaya.tsite.jp/item/sell_cd/4580117629869.html,https://store-tsutaya.tsite.jp/images/cache/tmb/74f66794ca895cc120e5eeb7fa252c52.jpg,https://store-tsutaya.tsite.jp/images/cache/tmb/ae221b9b56b7e7a354e580fdc9b2e281.jpg,4580117629869,ソニー・ミュージックソリューションズ,https://www.honyaclub.com/shop/g/g19912449/,"4,070円",new
cda,5,CEREMONY(通常盤),King Gnu,https://store-tsutaya.tsite.jp/item/sell_cd/4547366431988.html,https://store-tsutaya.tsite.jp/images/cache/tmb/c88a30fec1cf4526ee47700686e16abc.jpg,https://store-tsutaya.tsite.jp/images/cache/tmb/04983fd5eb7204b1cc2a1a9af80f90da.jpg,4547366431988,ソニー・ミュージックソリューションズ,https://www.honyaclub.com/shop/g/g19736397/,"3,190円",up
cda,6,Traveler(通常盤),Official髭男dism,https://store-tsutaya.tsite.jp/item/sell_cd/4988013018822.html,https://store-tsutaya.tsite.jp/images/cache/tmb/b0ad19df986fcac57802884a1376cbf4.jpg,https://store-tsutaya.tsite.jp/images/cache/tmb/bf4aad78caca5dfb9d54ecca75e6c15d.jpg,4988013018822,ポニーキャニオン,https://www.honyaclub.com/shop/g/g19672677/,"3,080円",down
cda,7,eyes(通常盤),milet,https://store-tsutaya.tsite.jp/item/sell_cd/4547366447934.html,https://store-tsutaya.tsite.jp/images/cache/tmb/9c3cb29988c3a0365f882f341b74d570.jpg,https://store-tsutaya.tsite.jp/images/cache/tmb/4c2c325791b6ba89825f52908993ba39.jpg,4547366447934,ソニー・ミュージックソリューションズ,https://www.honyaclub.com/shop/g/g19832825/,"3,190円",down
cda,8,オリオンブルー,Uru,https://store-tsutaya.tsite.jp/item/sell_cd/4547366441192.html,https://store-tsutaya.tsite.jp/images/cache/tmb/77e267e2c5fd837d3180e781b80e4123.jpg,https://store-tsutaya.tsite.jp/images/cache/tmb/56f15e04989b4eafd8382790fae4c605.jpg,4547366441192,ソニー・ミュージックソリューションズ,https://www.honyaclub.com/shop/g/g19779791/,"3,000円",up
cda,9,eyes(B)(DVD付)[初回限定版],milet,https://store-tsutaya.tsite.jp/item/sell_cd/4547366447958.html,https://store-tsutaya.tsite.jp/images/cache/tmb/f9475732847a47f1a7f3468075887aca.jpg,https://store-tsutaya.tsite.jp/images/cache/tmb/3848e12b19c7b0f906d779c0ff20f715.jpg,4547366447958,ソニー・ミュージックソリューションズ,https://www.honyaclub.com/shop/g/g19832824/,"3,850円",down
cda,10,瞬間的シックスセンス,あいみょん,https://store-tsutaya.tsite.jp/item/sell_cd/4943674292493.html,https://store-tsutaya.tsite.jp/images/cache/tmb/47327f76f75642e0c6bb7e883ad99ce9.jpg,https://store-tsutaya.tsite.jp/images/cache/tmb/0d05da9509cef8f17280dd223850186c.jpg,4943674292493,ソニー・ミュージックソリューションズ,https://www.honyaclub.com/shop/g/g19473172/,"3,080円",new
dvd,1,アナと雪の女王2(数量限定),（ディズニー）,https://store-tsutaya.tsite.jp/item/sell_dvd/4959241777324.html,https://store-tsutaya.tsite.jp/images/cache/tmb/328ff3212ba436943d86d52da891a905.jpg,https://store-tsutaya.tsite.jp/images/cache/tmb/402a34b251e10fc555331e333c05dad2.jpg,4959241777324,ウォルト・ディズニー・ジャパン,https://www.honyaclub.com/shop/g/g19852870/,"3,080円",up
dvd,2,午前0時、キスしに来てよ スペシャル・エディション,みきもと凜,https://store-tsutaya.tsite.jp/item/sell_dvd/4988632504898.html,https://store-tsutaya.tsite.jp/images/cache/tmb/6055c966eb5047b1ba16f62ffb41d8c3.jpg,https://store-tsutaya.tsite.jp/images/cache/tmb/307bdc4b8ca524fa3c89379dbfef8d22.jpg,4988632504898,ポニーキャニオン,https://www.honyaclub.com/shop/g/g19856103/,"7,480円",new
dvd,3,アナと雪の女王2 MovieNEX コンプリート・ケース付き(数量限定),（ディズニー）,https://store-tsutaya.tsite.jp/item/sell_dvd/4959241777317.html,https://store-tsutaya.tsite.jp/images/cache/tmb/c293f8da8f68d10612a6b8b5c2c99305.jpg,https://store-tsutaya.tsite.jp/images/cache/tmb/7e145932a88a90cf1b0205070844ee55.jpg,4959241777317,ウォルト・ディズニー・ジャパン,https://www.honyaclub.com/shop/g/g19852865/,"4,400円",up
dvd,4,「天気の子」スタンダード・エディション,新海誠,https://store-tsutaya.tsite.jp/item/sell_dvd/4988104124029.html,https://store-tsutaya.tsite.jp/images/cache/tmb/4004ef3a863fc8af93ab52be82547bc6.jpg,https://store-tsutaya.tsite.jp/images/cache/tmb/febf4cd7938c04d7ab9a1ac0432c2bff.jpg,4988104124029,東宝,https://www.honyaclub.com/shop/g/g19788722/,"4,180円",down
dvd,5,ハーレイ・クインの華麗なる覚醒 BIRDS OF PREY ブルーレイ&DVDセット,マーゴット・ロビー,https://store-tsutaya.tsite.jp/item/sell_dvd/4548967439717.html,https://store-tsutaya.tsite.jp/images/cache/tmb/e1e369b1a19173ca4a9d0e16ad5317f9.jpg,https://store-tsutaya.tsite.jp/images/cache/tmb/3773c7be096935c15cfee7e3d0f9239f.jpg,4548967439717,ワーナー・ブラザース ホームエンターテイメント,https://www.honyaclub.com/shop/g/g19880433/,"4,980円",new
dvd,6,午前0時、キスしに来てよ スタンダード・エディション,みきもと凜,https://store-tsutaya.tsite.jp/item/sell_dvd/4988632504904.html,https://store-tsutaya.tsite.jp/images/cache/tmb/f33a9cf7d016ab054e2b2a587e9b9852.jpg,https://store-tsutaya.tsite.jp/images/cache/tmb/6724fa13649d655bf553e293ad0fd4dc.jpg,4988632504904,ポニーキャニオン,https://www.honyaclub.com/shop/g/g19856104/,"4,180円",new
dvd,7,MY FIRST STORY TOUR 2019 FINAL at Saitama Super Arena,MY FIRST STORY,https://store-tsutaya.tsite.jp/item/sell_dvd/4582515751401.html,https://store-tsutaya.tsite.jp/images/cache/tmb/1eebaf711f05d7045ba8d4a95abbfd57.jpg,https://store-tsutaya.tsite.jp/images/cache/tmb/cf5f0f27d92a96a4d33ef47f427289a3.jpg,4582515751401,ジャパンミュージックシステム,https://www.honyaclub.com/shop/g/g19873727/,"6,050円",new
dvd,8,「天気の子」スタンダード・エディション(通常盤),新海誠,https://store-tsutaya.tsite.jp/item/sell_dvd/4988104124012.html,https://store-tsutaya.tsite.jp/images/cache/tmb/80eed7c25a1cb14d4eff3fdfd28ac70f.jpg,https://store-tsutaya.tsite.jp/images/cache/tmb/9700c2511f0fca16e8f5133688ac173b.jpg,4988104124012,東宝,https://www.honyaclub.com/shop/g/g19788721/,"5,280円",down
dvd,9,スター・ウォーズ/スカイウォーカーの夜明け MovieNEX,デイジー・リドリー,https://store-tsutaya.tsite.jp/item/sell_dvd/4959241777386.html,https://store-tsutaya.tsite.jp/images/cache/tmb/24e2ca99643f7339d4a069dd9f162e49.jpg,https://store-tsutaya.tsite.jp/images/cache/tmb/25479a2d7628aec0d9430802407f6362.jpg,4959241777386,ウォルト・ディズニー・ジャパン,https://www.honyaclub.com/shop/g/g19844501/,"4,620円",down
dvd,10,午前0時、キスしに来てよ スペシャル・エディション,みきもと凜,https://store-tsutaya.tsite.jp/item/sell_dvd/4988632504928.html,https://store-tsutaya.tsite.jp/images/cache/tmb/5aa13e8894ad7d68e78a662a97a7cf80.jpg,https://store-tsutaya.tsite.jp/images/cache/tmb/c182df58bfd3af9af46e159ac2848337.jpg,4988632504928,ポニーキャニオン,https://www.honyaclub.com/shop/g/g19856101/,"8,470円",new
game,1,The Last of Us Part II,PS4,https://store-tsutaya.tsite.jp/item/sell_game/4948872311618.html,https://store-tsutaya.tsite.jp/images/cache/tmb/161373b07f4eabdc9fe0cb1cf52b0525.jpg,https://store-tsutaya.tsite.jp/images/cache/tmb/dc9c867b0d1acbbc1405a25b0c3279b5.jpg,4948872311618,ソニー・インタラクティブエンタテインメント,--,--,new
game,2,あつまれ どうぶつの森,Nintendo Switch,https://store-tsutaya.tsite.jp/item/sell_game/4902370545319.html,https://store-tsutaya.tsite.jp/images/cache/tmb/913b7075d498af84c2eb8ae17a475654.jpg,https://store-tsutaya.tsite.jp/images/cache/tmb/c4a3ac9aa436b3fc4fd268b19dd1b741.jpg,4902370545319,任天堂,--,--,down
game,3,世界のアソビ大全51,Nintendo Switch,https://store-tsutaya.tsite.jp/item/sell_game/4902370545784.html,https://store-tsutaya.tsite.jp/images/cache/tmb/00e6b498d905a365648235789cdfcd93.jpg,https://store-tsutaya.tsite.jp/images/cache/tmb/8f2887f67682acce5df201733e9dea18.jpg,4902370545784,任天堂,--,--,down
game,4,リングフィット アドベンチャー,Nintendo Switch,https://store-tsutaya.tsite.jp/item/sell_game/4902370543278.html,https://store-tsutaya.tsite.jp/images/cache/tmb/e6abe76933a692a541d33ac4f89f25cb.jpg,https://store-tsutaya.tsite.jp/images/cache/tmb/3784d54d8c60a17f83b0469b34e81ddb.jpg,4902370543278,任天堂,--,--,up
game,5,The Last of Us Remastered PlayStation Hits,PS4,https://store-tsutaya.tsite.jp/item/sell_game/4948872015752.html,https://store-tsutaya.tsite.jp/images/cache/tmb/4b4e3f4af4ffb2aec3c6d5669af7c1b9.jpg,https://store-tsutaya.tsite.jp/images/cache/tmb/407bcdd4b3877f9d1d2a8d80369f647d.jpg,4948872015752,ソニー・インタラクティブエンタテインメント,--,--,down
game,6,The Last of Us Part II スペシャルエディション,PS4,https://store-tsutaya.tsite.jp/item/sell_game/4948872311625.html,https://store-tsutaya.tsite.jp/images/cache/tmb/681dee65224808635b487c42b13a4d60.jpg,https://store-tsutaya.tsite.jp/images/cache/tmb/ee8d0208b9383d6ad35be791dc29297c.jpg,4948872311625,ソニー・インタラクティブエンタテインメント,--,--,new
game,7,Splatoon 2,Nintendo Switch,https://store-tsutaya.tsite.jp/item/sell_game/4902370537253.html,https://store-tsutaya.tsite.jp/images/cache/tmb/1ea81f5d6866f828bc1f2a40cb145a0a.jpg,https://store-tsutaya.tsite.jp/images/cache/tmb/16820fbbe6bbddf0357f905f83412cd8.jpg,4902370537253,任天堂,--,--,down
game,8,Xenoblade Definitive Edition,Nintendo Switch,https://store-tsutaya.tsite.jp/item/sell_game/4902370545821.html,https://store-tsutaya.tsite.jp/images/cache/tmb/939a5a593da05f440518907d432e209b.jpg,https://store-tsutaya.tsite.jp/images/cache/tmb/e88af0ec5c6092d7c374f179d8a64ddb.jpg,4902370545821,任天堂,--,--,down
game,9,Minecraft,Nintendo Switch,https://store-tsutaya.tsite.jp/item/sell_game/4549576094113.html,https://store-tsutaya.tsite.jp/images/cache/tmb/6041460ba41ddb8ae37b11465add17f7.jpg,https://store-tsutaya.tsite.jp/images/cache/tmb/2c4d7eca9a39494877e8ff4cca80580f.jpg,4549576094113,日本マイクロソフト株式会社,--,--,down
game,10,マリオカート8 デラックス,Nintendo Switch,https://store-tsutaya.tsite.jp/item/sell_game/4902370536485.html,https://store-tsutaya.tsite.jp/images/cache/tmb/f9b4e44b7158a4c0db9ba68faada04dc.jpg,https://store-tsutaya.tsite.jp/images/cache/tmb/b6a837e26c31b828325fdfe7dca90c5b.jpg,4902370536485,任天堂,--,--,down
