﻿cds,1,TOP -Japanese ver.-,Stray Kids,https://store-tsutaya.tsite.jp/item/sell_cd/4547366455106.html,https://store-tsutaya.tsite.jp/images/cache/tmb/ea5255532990a13f002fb316d938faf4.jpg,https://store-tsutaya.tsite.jp/images/cache/tmb/10d5e8995c04a1ee57ad5d1584833378.jpg,4547366455106,ソニー・ミュージックソリューションズ,https://www.honyaclub.com/shop/g/g19873788/,"1,400円",new
cds,2,紅蓮華(期間生産限定盤)(DVD付)[期間限定版],LiSA,https://store-tsutaya.tsite.jp/item/sell_cd/4547366408195.html,https://store-tsutaya.tsite.jp/images/cache/tmb/426198a38ab6b9692a0832aacd2edea2.jpg,https://store-tsutaya.tsite.jp/images/cache/tmb/ee5c89aa85b3c9bd57fa4e6a39c3d3f5.jpg,4547366408195,ソニー・ミュージックソリューションズ,https://www.honyaclub.com/shop/g/g19597843/,"1,760円",down
cds,3,TOP -Japanese ver.-(A)(DVD付)[初回限定版],Stray Kids,https://store-tsutaya.tsite.jp/item/sell_cd/4547366455076.html,https://store-tsutaya.tsite.jp/images/cache/tmb/7f8b577b205cd40f1caed9ac4f13cc2e.jpg,https://store-tsutaya.tsite.jp/images/cache/tmb/0b6a239dc191f37c78df9cb43a69fe3a.jpg,4547366455076,ソニー・ミュージックソリューションズ,https://www.honyaclub.com/shop/g/g19873785/,"2,000円",new
cds,4,D.D./Imitation Rain(通常盤),Snow Man vs SixTONES,https://store-tsutaya.tsite.jp/item/sell_cd/4988064946686.html,https://store-tsutaya.tsite.jp/images/cache/tmb/68e210a9a454f2588c6cd93808d6eeb5.jpg,https://store-tsutaya.tsite.jp/images/cache/tmb/8b97f91b22d3916e8bb550ce07ecf5ab.jpg,4988064946686,エイベックス・エンタテインメント,https://www.honyaclub.com/shop/g/g19733657/,"1,100円",down
cds,5,I LOVE...,Official髭男dism,https://store-tsutaya.tsite.jp/item/sell_cd/4988013916029.html,https://store-tsutaya.tsite.jp/images/cache/tmb/66e402f20b0ed095e9854240d9c8de5f.jpg,https://store-tsutaya.tsite.jp/images/cache/tmb/c90e687d462a031eea5aa423aa4d71ae.jpg,4988013916029,ポニーキャニオン,https://www.honyaclub.com/shop/g/g19781704/,770円,down
cds,6,TOP -Japanese ver.-(B)[初回限定版],Stray Kids,https://store-tsutaya.tsite.jp/item/sell_cd/4547366455083.html,https://store-tsutaya.tsite.jp/images/cache/tmb/5f750f45b0461a11e753019894b375fa.jpg,https://store-tsutaya.tsite.jp/images/cache/tmb/16950d9c23e8c252bb339717308aa303.jpg,4547366455083,ソニー・ミュージックソリューションズ,https://www.honyaclub.com/shop/g/g19873786/,"1,800円",new
cds,7,D.D./Imitation Rain(DVD付)[初回限定版],Snow Man vs SixTONES,https://store-tsutaya.tsite.jp/item/sell_cd/4988064946662.html,https://store-tsutaya.tsite.jp/images/cache/tmb/4e231b126e49fa0446f48e8edab24f6f.jpg,https://store-tsutaya.tsite.jp/images/cache/tmb/4515d5fbbf09a961f4c89d1627a1c19a.jpg,4988064946662,エイベックス・エンタテインメント,https://www.honyaclub.com/shop/g/g19733655/,"1,760円",down
cds,8,紅蓮華,LiSA,https://store-tsutaya.tsite.jp/item/sell_cd/4547366408188.html,https://store-tsutaya.tsite.jp/images/cache/tmb/1fce16487c0ae956d072af38938cd432.jpg,https://store-tsutaya.tsite.jp/images/cache/tmb/769de44c8d9af3fc2f9b48e354f7f270.jpg,4547366408188,ソニー・ミュージックソリューションズ,https://www.honyaclub.com/shop/g/g19597842/,"1,320円",down
cds,9,「劇場版マクロスΔ 絶対LIVE!!!!!!」イメージソング 未来はオンナのためにある(BD付)[初回限定版],マクロスΔ/ワルキューレ,https://store-tsutaya.tsite.jp/item/sell_cd/4582575380825.html,https://store-tsutaya.tsite.jp/images/cache/tmb/5fde7589d642af54e7dd62af42ef2aba.jpg,https://store-tsutaya.tsite.jp/images/cache/tmb/c2e38334314ed0b385c72e347672fb87.jpg,4582575380825,ビクターエンタテインメント,https://www.honyaclub.com/shop/g/g19838529/,"2,970円",new
cds,10,Imitation Rain/D.D.(通常盤),SixTONES vs Snow Man,https://store-tsutaya.tsite.jp/item/sell_cd/4547366433234.html,https://store-tsutaya.tsite.jp/images/cache/tmb/e922530f29a705a3302c3270fcbf57d1.jpg,https://store-tsutaya.tsite.jp/images/cache/tmb/648280cb02d27de3878b8556086cdfdf.jpg,4547366433234,ソニー・ミュージックソリューションズ,https://www.honyaclub.com/shop/g/g19733660/,"1,100円",down
cda,1,eyes(通常盤),milet,https://store-tsutaya.tsite.jp/item/sell_cd/4547366447934.html,https://store-tsutaya.tsite.jp/images/cache/tmb/9c3cb29988c3a0365f882f341b74d570.jpg,https://store-tsutaya.tsite.jp/images/cache/tmb/4c2c325791b6ba89825f52908993ba39.jpg,4547366447934,ソニー・ミュージックソリューションズ,https://www.honyaclub.com/shop/g/g19832825/,"3,190円",new
cda,2,eyes(B)(DVD付)[初回限定版],milet,https://store-tsutaya.tsite.jp/item/sell_cd/4547366447958.html,https://store-tsutaya.tsite.jp/images/cache/tmb/f9475732847a47f1a7f3468075887aca.jpg,https://store-tsutaya.tsite.jp/images/cache/tmb/3848e12b19c7b0f906d779c0ff20f715.jpg,4547366447958,ソニー・ミュージックソリューションズ,https://www.honyaclub.com/shop/g/g19832824/,"3,850円",new
cda,3,eyes(A)(BD付)[初回限定版],milet,https://store-tsutaya.tsite.jp/item/sell_cd/4547366447941.html,https://store-tsutaya.tsite.jp/images/cache/tmb/863f2213d2edc1f14898c1febdc95a17.jpg,https://store-tsutaya.tsite.jp/images/cache/tmb/34a9f480222e9e6abed37215ec9c5cc2.jpg,4547366447941,ソニー・ミュージックソリューションズ,https://www.honyaclub.com/shop/g/g19832823/,"4,950円",new
cda,4,め(DVD付)[初回限定版],さユり,https://store-tsutaya.tsite.jp/item/sell_cd/4547366441369.html,https://store-tsutaya.tsite.jp/images/cache/tmb/140901bbbfb69594ad9a880b78d11c9f.jpg,https://store-tsutaya.tsite.jp/images/cache/tmb/f31713c3e3bd765f10feed9e09a29ab9.jpg,4547366441369,ソニー・ミュージックソリューションズ,https://www.honyaclub.com/shop/g/g19779797/,"3,500円",new
cda,5,Traveler(通常盤),Official髭男dism,https://store-tsutaya.tsite.jp/item/sell_cd/4988013018822.html,https://store-tsutaya.tsite.jp/images/cache/tmb/b0ad19df986fcac57802884a1376cbf4.jpg,https://store-tsutaya.tsite.jp/images/cache/tmb/bf4aad78caca5dfb9d54ecca75e6c15d.jpg,4988013018822,ポニーキャニオン,https://www.honyaclub.com/shop/g/g19672677/,"3,080円",up
cda,6,MORE & MORE (9TH MINI ALBUM),TWICE,https://store-tsutaya.tsite.jp/item/sell_cd/8809440339884.html,https://store-tsutaya.tsite.jp/images/cache/tmb/f23ee926f844da48ff1d49c2cb1dcf57.png,https://store-tsutaya.tsite.jp/images/cache/tmb/a7b3d84bbb33aa59332f6b0756458c52.png,8809440339884,輸入盤,,--,new
cda,7,CEREMONY(通常盤),King Gnu,https://store-tsutaya.tsite.jp/item/sell_cd/4547366431988.html,https://store-tsutaya.tsite.jp/images/cache/tmb/c88a30fec1cf4526ee47700686e16abc.jpg,https://store-tsutaya.tsite.jp/images/cache/tmb/04983fd5eb7204b1cc2a1a9af80f90da.jpg,4547366431988,ソニー・ミュージックソリューションズ,https://www.honyaclub.com/shop/g/g19736397/,"3,190円",up
cda,8,YOUR STORY,JUJU,https://store-tsutaya.tsite.jp/item/sell_cd/4547366442731.html,https://store-tsutaya.tsite.jp/images/cache/tmb/f5403b2dc450feb39244f35199c5edf9.jpg,https://store-tsutaya.tsite.jp/images/cache/tmb/f9acb757786a12d8416d1efe10122ed3.jpg,4547366442731,ソニー・ミュージックソリューションズ,https://www.honyaclub.com/shop/g/g19792663/,"3,960円",down
cda,9,オリオンブルー,Uru,https://store-tsutaya.tsite.jp/item/sell_cd/4547366441192.html,https://store-tsutaya.tsite.jp/images/cache/tmb/77e267e2c5fd837d3180e781b80e4123.jpg,https://store-tsutaya.tsite.jp/images/cache/tmb/56f15e04989b4eafd8382790fae4c605.jpg,4547366441192,ソニー・ミュージックソリューションズ,https://www.honyaclub.com/shop/g/g19779791/,"3,000円",stay
cda,10,バンドリ! ガールズバンドパーティ! カバーコレクション Vol.4,BanG Dream!,https://store-tsutaya.tsite.jp/item/sell_cd/4562494352851.html,https://store-tsutaya.tsite.jp/images/cache/tmb/5dc8485e611cb0323a3b6faabf3f83ca.jpg,https://store-tsutaya.tsite.jp/images/cache/tmb/74fef61e78e3ebfef2cd46d341988aae.jpg,4562494352851,ハピネット,https://www.honyaclub.com/shop/g/g19858492/,"3,520円",new
dvd,1,「天気の子」スタンダード・エディション,新海誠,https://store-tsutaya.tsite.jp/item/sell_dvd/4988104124029.html,https://store-tsutaya.tsite.jp/images/cache/tmb/4004ef3a863fc8af93ab52be82547bc6.jpg,https://store-tsutaya.tsite.jp/images/cache/tmb/febf4cd7938c04d7ab9a1ac0432c2bff.jpg,4988104124029,東宝,https://www.honyaclub.com/shop/g/g19788722/,"4,180円",new
dvd,2,アナと雪の女王2(数量限定),（ディズニー）,https://store-tsutaya.tsite.jp/item/sell_dvd/4959241777324.html,https://store-tsutaya.tsite.jp/images/cache/tmb/328ff3212ba436943d86d52da891a905.jpg,https://store-tsutaya.tsite.jp/images/cache/tmb/402a34b251e10fc555331e333c05dad2.jpg,4959241777324,ウォルト・ディズニー・ジャパン,https://www.honyaclub.com/shop/g/g19852870/,"3,080円",stay
dvd,3,「天気の子」スタンダード・エディション(通常盤),新海誠,https://store-tsutaya.tsite.jp/item/sell_dvd/4988104124012.html,https://store-tsutaya.tsite.jp/images/cache/tmb/80eed7c25a1cb14d4eff3fdfd28ac70f.jpg,https://store-tsutaya.tsite.jp/images/cache/tmb/9700c2511f0fca16e8f5133688ac173b.jpg,4988104124012,東宝,https://www.honyaclub.com/shop/g/g19788721/,"5,280円",new
dvd,4,アナと雪の女王2 MovieNEX コンプリート・ケース付き(数量限定),（ディズニー）,https://store-tsutaya.tsite.jp/item/sell_dvd/4959241777317.html,https://store-tsutaya.tsite.jp/images/cache/tmb/c293f8da8f68d10612a6b8b5c2c99305.jpg,https://store-tsutaya.tsite.jp/images/cache/tmb/7e145932a88a90cf1b0205070844ee55.jpg,4959241777317,ウォルト・ディズニー・ジャパン,https://www.honyaclub.com/shop/g/g19852865/,"4,400円",down
dvd,5,飛鳥工事中,,,https://store-tsutaya.tsite.jp/images/cache/tmb/ccf720ec8faaca298cdd036195a167e1.png,,,,,--,down
dvd,6,スター・ウォーズ/スカイウォーカーの夜明け MovieNEX,デイジー・リドリー,https://store-tsutaya.tsite.jp/item/sell_dvd/4959241777386.html,https://store-tsutaya.tsite.jp/images/cache/tmb/24e2ca99643f7339d4a069dd9f162e49.jpg,https://store-tsutaya.tsite.jp/images/cache/tmb/25479a2d7628aec0d9430802407f6362.jpg,4959241777386,ウォルト・ディズニー・ジャパン,https://www.honyaclub.com/shop/g/g19844501/,"4,620円",down
dvd,7,星野工事中,,,https://store-tsutaya.tsite.jp/images/cache/tmb/ccf720ec8faaca298cdd036195a167e1.png,,,,,--,down
dvd,8,新内工事中,,,https://store-tsutaya.tsite.jp/images/cache/tmb/ccf720ec8faaca298cdd036195a167e1.png,,,,,--,down
dvd,9,堀工事中,,,https://store-tsutaya.tsite.jp/images/cache/tmb/ccf720ec8faaca298cdd036195a167e1.png,,,,,--,down
dvd,10,ルパン三世 THE FIRST(ルパン三世参上スペシャルプライス版),モンキー・パンチ,https://store-tsutaya.tsite.jp/item/sell_dvd/4988021140188.html,https://store-tsutaya.tsite.jp/images/cache/tmb/43ccea1352889433b49d9cbdc623e86c.jpg,https://store-tsutaya.tsite.jp/images/cache/tmb/541b546c8517228d69798a0bea525692.jpg,4988021140188,バップ,https://www.honyaclub.com/shop/g/g19851463/,"3,666円",new
game,1,あつまれ どうぶつの森,Nintendo Switch,https://store-tsutaya.tsite.jp/item/sell_game/4902370545319.html,https://store-tsutaya.tsite.jp/images/cache/tmb/913b7075d498af84c2eb8ae17a475654.jpg,https://store-tsutaya.tsite.jp/images/cache/tmb/c4a3ac9aa436b3fc4fd268b19dd1b741.jpg,4902370545319,任天堂,--,--,stay
game,2,世界のアソビ大全51,Nintendo Switch,https://store-tsutaya.tsite.jp/item/sell_game/4902370545784.html,https://store-tsutaya.tsite.jp/images/cache/tmb/00e6b498d905a365648235789cdfcd93.jpg,https://store-tsutaya.tsite.jp/images/cache/tmb/8f2887f67682acce5df201733e9dea18.jpg,4902370545784,任天堂,--,--,new
game,3,Xenoblade Definitive Edition,Nintendo Switch,https://store-tsutaya.tsite.jp/item/sell_game/4902370545821.html,https://store-tsutaya.tsite.jp/images/cache/tmb/939a5a593da05f440518907d432e209b.jpg,https://store-tsutaya.tsite.jp/images/cache/tmb/e88af0ec5c6092d7c374f179d8a64ddb.jpg,4902370545821,任天堂,--,--,new
game,4,The Last of Us Remastered PlayStation Hits,PS4,https://store-tsutaya.tsite.jp/item/sell_game/4948872015752.html,https://store-tsutaya.tsite.jp/images/cache/tmb/4b4e3f4af4ffb2aec3c6d5669af7c1b9.jpg,https://store-tsutaya.tsite.jp/images/cache/tmb/407bcdd4b3877f9d1d2a8d80369f647d.jpg,4948872015752,ソニー・インタラクティブエンタテインメント,--,--,new
game,5,リングフィット アドベンチャー,Nintendo Switch,https://store-tsutaya.tsite.jp/item/sell_game/4902370543278.html,https://store-tsutaya.tsite.jp/images/cache/tmb/e6abe76933a692a541d33ac4f89f25cb.jpg,https://store-tsutaya.tsite.jp/images/cache/tmb/3784d54d8c60a17f83b0469b34e81ddb.jpg,4902370543278,任天堂,--,--,down
game,6,Splatoon 2,Nintendo Switch,https://store-tsutaya.tsite.jp/item/sell_game/4902370537253.html,https://store-tsutaya.tsite.jp/images/cache/tmb/1ea81f5d6866f828bc1f2a40cb145a0a.jpg,https://store-tsutaya.tsite.jp/images/cache/tmb/16820fbbe6bbddf0357f905f83412cd8.jpg,4902370537253,任天堂,--,--,down
game,7,Minecraft,Nintendo Switch,https://store-tsutaya.tsite.jp/item/sell_game/4549576094113.html,https://store-tsutaya.tsite.jp/images/cache/tmb/6041460ba41ddb8ae37b11465add17f7.jpg,https://store-tsutaya.tsite.jp/images/cache/tmb/2c4d7eca9a39494877e8ff4cca80580f.jpg,4549576094113,日本マイクロソフト株式会社,--,--,down
game,8,マリオカート8 デラックス,Nintendo Switch,https://store-tsutaya.tsite.jp/item/sell_game/4902370536485.html,https://store-tsutaya.tsite.jp/images/cache/tmb/f9b4e44b7158a4c0db9ba68faada04dc.jpg,https://store-tsutaya.tsite.jp/images/cache/tmb/b6a837e26c31b828325fdfe7dca90c5b.jpg,4902370536485,任天堂,--,--,down
game,9,大乱闘スマッシュブラザーズ SPECIAL,Nintendo Switch,https://store-tsutaya.tsite.jp/item/sell_game/4902370540734.html,https://store-tsutaya.tsite.jp/images/cache/tmb/4346942721b6a95e9fd18635954c7cfe.jpg,https://store-tsutaya.tsite.jp/images/cache/tmb/2b8f0a352c249987b000f8c6172cb32d.jpg,4902370540734,任天堂,--,--,down
game,10,九龍妖魔學園紀 ORIGIN OF ADVENTURE,Nintendo Switch,https://store-tsutaya.tsite.jp/item/sell_game/4510772200035.html,https://store-tsutaya.tsite.jp/images/cache/tmb/323317e98903b4c2cc9291492feb1863.jpg,https://store-tsutaya.tsite.jp/images/cache/tmb/e0c9981253740ae45b9c93e29bb73001.jpg,4510772200035,アークシステムワークス,--,--,new
