﻿cds,1,ENDLESS SUMMER(通常盤),Kis-My-Ft2,https://store-tsutaya.tsite.jp/item/sell_cd/4988064949182.html,https://store-tsutaya.tsite.jp/images/cache/tmb/89933d597ba309d8b1cf6f7feca8ac4a.jpg,https://store-tsutaya.tsite.jp/images/cache/tmb/2dc77623d19fa91ce9fe738f1420b0da.jpg,4988064949182,エイベックス・エンタテインメント,https://www.honyaclub.com/shop/g/g19966501/,"1,100円",new
cds,2,ENDLESS SUMMER(A)(DVD付)[初回限定版],Kis-My-Ft2,https://store-tsutaya.tsite.jp/item/sell_cd/4988064949168.html,https://store-tsutaya.tsite.jp/images/cache/tmb/db15f1c672453d4d04d8d94bede9f987.jpg,https://store-tsutaya.tsite.jp/images/cache/tmb/b9f734d9ccdef968bf673f80a93ac743.jpg,4988064949168,エイベックス・エンタテインメント,https://www.honyaclub.com/shop/g/g19966499/,"1,760円",new
cds,3,ENDLESS SUMMER(B)(DVD付)[初回限定版],Kis-My-Ft2,https://store-tsutaya.tsite.jp/item/sell_cd/4988064949175.html,https://store-tsutaya.tsite.jp/images/cache/tmb/b1cd221f3e15ee9c2ac1aba330ba2d0a.jpg,https://store-tsutaya.tsite.jp/images/cache/tmb/6a7a234db7a8f0481b6d7b45d3321965.jpg,4988064949175,エイベックス・エンタテインメント,https://www.honyaclub.com/shop/g/g19966500/,"1,760円",new
cds,4,Time Warp(完全生産限定盤)(DVD付)[初回限定版],Perfume,https://store-tsutaya.tsite.jp/item/sell_cd/4988031398029.html,https://store-tsutaya.tsite.jp/images/cache/tmb/e8f63f4c2e8ef407ea1e64296be0257c.jpg,https://store-tsutaya.tsite.jp/images/cache/tmb/6baf52a0aa0f9ea42b1ddcc43986ccad.jpg,4988031398029,ユニバーサル・ミュージック,https://www.honyaclub.com/shop/g/g19976130/,"2,890円",new
cds,5,カイト(通常盤),嵐,https://store-tsutaya.tsite.jp/item/sell_cd/4580117629920.html,https://store-tsutaya.tsite.jp/images/cache/tmb/05f4eb11951fdd90b412b1ac2cf83904.jpg,https://store-tsutaya.tsite.jp/images/cache/tmb/fed9d5c58c88998c1e5d84ae4afb1df1.jpg,4580117629920,ソニー・ミュージックソリューションズ,https://www.honyaclub.com/shop/g/g19938009/,"1,257円",up
cds,6,smile(DVD付)[期間限定版],Twenty★Twenty,https://store-tsutaya.tsite.jp/item/sell_cd/4582515770013.html,https://store-tsutaya.tsite.jp/images/cache/tmb/f23ee926f844da48ff1d49c2cb1dcf57.png,https://store-tsutaya.tsite.jp/images/cache/tmb/a7b3d84bbb33aa59332f6b0756458c52.png,4582515770013,ソニー・ミュージックソリューションズ,https://www.honyaclub.com/shop/g/g19938604/,"1,980円",down
cds,7,Time Warp(DVD付)[初回限定版],Perfume,https://store-tsutaya.tsite.jp/item/sell_cd/4988031398036.html,https://store-tsutaya.tsite.jp/images/cache/tmb/9be73bbf71b4d502245e40282c429474.jpg,https://store-tsutaya.tsite.jp/images/cache/tmb/8af41ac93d6d7b110ebf94577aaa035b.jpg,4988031398036,ユニバーサル・ミュージック,https://www.honyaclub.com/shop/g/g19976131/,"2,000円",new
cds,8,P.S. I love you(DVD付)[初回限定版],宮本浩次,https://store-tsutaya.tsite.jp/item/sell_cd/4988031394328.html,https://store-tsutaya.tsite.jp/images/cache/tmb/228a7c365e06fd3253ecab27e66c2602.jpg,https://store-tsutaya.tsite.jp/images/cache/tmb/31cc4d10603796e990a990501f89b369.jpg,4988031394328,ユニバーサル・ミュージック,https://www.honyaclub.com/shop/g/g19972142/,"3,190円",new
cds,9,東京マドンナ(B),predia,https://store-tsutaya.tsite.jp/item/sell_cd/4988007292016.html,https://store-tsutaya.tsite.jp/images/cache/tmb/b35c924fc86891754b02a1490dccc0b1.jpg,https://store-tsutaya.tsite.jp/images/cache/tmb/8be497d8c4f7af510d1ab03c6bea876c.jpg,4988007292016,徳間ジャパンコミュニケーション,https://www.honyaclub.com/shop/g/g19941469/,"1,000円",new
cds,10,MIRROR/DANCE,浜田省吾,https://store-tsutaya.tsite.jp/item/sell_cd/4547366463675.html,https://store-tsutaya.tsite.jp/images/cache/tmb/c6db36bf07eb5bbb0e7d8bdd4637268c.jpg,https://store-tsutaya.tsite.jp/images/cache/tmb/6f2f11b4d7c6b64fa5f9f7d0c552f5f2.jpg,4547366463675,ソニー・ミュージックソリューションズ,https://www.honyaclub.com/shop/g/g19948006/,"1,100円",new
cda,1,#TWICE3(B)(DVD付)[初回限定版],TWICE,https://store-tsutaya.tsite.jp/item/sell_cd/4943674318568.html,https://store-tsutaya.tsite.jp/images/cache/tmb/7de130276247da5603be898dda1b08ba.jpg,https://store-tsutaya.tsite.jp/images/cache/tmb/ec99cfbb24431802bfd20490d2eb52c8.jpg,4943674318568,ソニー・ミュージックソリューションズ,https://www.honyaclub.com/shop/g/g19966484/,"4,950円",new
cda,2,おいしいパスタがあると聞いて[初回限定版],あいみょん,https://store-tsutaya.tsite.jp/item/sell_cd/4943674319466.html,https://store-tsutaya.tsite.jp/images/cache/tmb/7f9ef09ac675f23a15fb98928623b4c5.jpg,https://store-tsutaya.tsite.jp/images/cache/tmb/678e3da23592fc0cb292f1ee365c5dd8.jpg,4943674319466,ソニー・ミュージックソリューションズ,https://www.honyaclub.com/shop/g/g19972198/,"4,400円",new
cda,3,#TWICE3(A)[初回限定版],TWICE,https://store-tsutaya.tsite.jp/item/sell_cd/4943674318551.html,https://store-tsutaya.tsite.jp/images/cache/tmb/82913b8754dc04f36b0e3c19f8019fdf.jpg,https://store-tsutaya.tsite.jp/images/cache/tmb/d4f01dad69cc5a60acd61ec3dd7f0878.jpg,4943674318551,ソニー・ミュージックソリューションズ,https://www.honyaclub.com/shop/g/g19966483/,"5,500円",new
cda,4,STRAY SHEEP,米津玄師,https://store-tsutaya.tsite.jp/item/sell_cd/4547366457933.html,https://store-tsutaya.tsite.jp/images/cache/tmb/1135a0797ddaceceb554097086710835.jpg,https://store-tsutaya.tsite.jp/images/cache/tmb/42f13da939a61295bb2d594627c32bb1.jpg,4547366457933,ソニー・ミュージックソリューションズ,https://www.honyaclub.com/shop/g/g19929549/,"3,300円",stay
cda,5,おいしいパスタがあると聞いて(通常盤),あいみょん,https://store-tsutaya.tsite.jp/item/sell_cd/4943674315475.html,https://store-tsutaya.tsite.jp/images/cache/tmb/816fa88133d2216ddd2b231d440c10bd.jpg,https://store-tsutaya.tsite.jp/images/cache/tmb/a5c412574b5a3fae829a13943552f900.jpg,4943674315475,ソニー・ミュージックソリューションズ,https://www.honyaclub.com/shop/g/g19972199/,"3,080円",new
cda,6,#TWICE3(通常盤),TWICE,https://store-tsutaya.tsite.jp/item/sell_cd/4943674318575.html,https://store-tsutaya.tsite.jp/images/cache/tmb/c92270635b5377b67785d36f789bf2e5.jpg,https://store-tsutaya.tsite.jp/images/cache/tmb/78903595cc0c1100fba0e4267d142584.jpg,4943674318575,ソニー・ミュージックソリューションズ,https://www.honyaclub.com/shop/g/g19966482/,"2,750円",new
cda,7,GUNDAM SONG COVERS 2,森口博子,https://store-tsutaya.tsite.jp/item/sell_cd/4988003564834.html,https://store-tsutaya.tsite.jp/images/cache/tmb/ed4cfa53b118c3706b137321e1787667.jpg,https://store-tsutaya.tsite.jp/images/cache/tmb/406358c22503005bfd3da547e8f3251d.jpg,4988003564834,キングレコード,https://www.honyaclub.com/shop/g/g19848106/,"3,300円",new
cda,8,瞬く世界に i を揺らせ(DVD付)[初回限定版],CHiCO with HoneyWorks,https://store-tsutaya.tsite.jp/item/sell_cd/4580074472676.html,https://store-tsutaya.tsite.jp/images/cache/tmb/704c0299f88d2d047e8e318af6178fba.jpg,https://store-tsutaya.tsite.jp/images/cache/tmb/d6c3d97922e0fef6f534467fab251312.jpg,4580074472676,ソニー・ミュージックソリューションズ,https://www.honyaclub.com/shop/g/g19864535/,"4,180円",new
cda,9,L&(A)(DVD付)[初回限定版],King&Prince,https://store-tsutaya.tsite.jp/item/sell_cd/4988031395080.html,https://store-tsutaya.tsite.jp/images/cache/tmb/005bb97318b5f42e646965160e4a4b3f.jpg,https://store-tsutaya.tsite.jp/images/cache/tmb/0bddba2f2d32135f3e1f6770b6b11b31.jpg,4988031395080,ユニバーサル・ミュージック,https://www.honyaclub.com/shop/g/g19964117/,"3,960円",down
cda,10,L&(通常盤),King&Prince,https://store-tsutaya.tsite.jp/item/sell_cd/4988031395103.html,https://store-tsutaya.tsite.jp/images/cache/tmb/8c655a96630648210c44048eb3de416b.jpg,https://store-tsutaya.tsite.jp/images/cache/tmb/09696bba224d562eb7bbc9d2a46da19f.jpg,4988031395103,ユニバーサル・ミュージック,https://www.honyaclub.com/shop/g/g19964119/,"3,300円",down
dvd,1,KING'S PARADE 男祭り FINAL at Tokyo Dome 2019.12.20,UVERworld,https://store-tsutaya.tsite.jp/item/sell_dvd/4547366464375.html,https://store-tsutaya.tsite.jp/images/cache/tmb/4608ee5475c8108eb63082177cdfb2fc.jpg,https://store-tsutaya.tsite.jp/images/cache/tmb/42c6ea30a39864cf9c5420dfa809151b.jpg,4547366464375,ソニー・ミュージックソリューションズ,https://www.honyaclub.com/shop/g/g19947565/,"8,580円",new
dvd,2,KING'S PARADE 男祭り FINAL at Tokyo Dome 2019.12.20,UVERworld,https://store-tsutaya.tsite.jp/item/sell_dvd/4547366464399.html,https://store-tsutaya.tsite.jp/images/cache/tmb/a7f56b781a72d50cc4d1212d547a9d85.jpg,https://store-tsutaya.tsite.jp/images/cache/tmb/8f8a25a3365e022194063e8c32182e3e.jpg,4547366464399,ソニー・ミュージックソリューションズ,https://www.honyaclub.com/shop/g/g19947567/,"9,130円",new
dvd,3,映画「貴族降臨-PRINCE OF LEGEND-」(豪華版),白濱亜嵐,https://store-tsutaya.tsite.jp/item/sell_dvd/4988021140447.html,https://store-tsutaya.tsite.jp/images/cache/tmb/da004261b6f7d63258f0fc0bfb9c0bd5.jpg,https://store-tsutaya.tsite.jp/images/cache/tmb/74395fc1a2f3aea46ce49499a021f2b8.jpg,4988021140447,バップ,https://www.honyaclub.com/shop/g/g19951543/,"7,480円",new
dvd,4,ALL MV COLLECTION2~あの時の彼女たち~,乃木坂46,https://store-tsutaya.tsite.jp/item/sell_dvd/4547366461909.html,https://store-tsutaya.tsite.jp/images/cache/tmb/1c654df9aa246df5e3234d9829a965e3.jpg,https://store-tsutaya.tsite.jp/images/cache/tmb/7d05c33554b564ba74c02fba9c7ecba9.jpg,4547366461909,ソニー・ミュージックソリューションズ,https://www.honyaclub.com/shop/g/g19976077/,"14,300円",new
dvd,5,YUZU ALL TIME BEST LIVE AGAIN 2008-2020,ゆず,https://store-tsutaya.tsite.jp/item/sell_dvd/4537649189378.html,https://store-tsutaya.tsite.jp/images/cache/tmb/c496a4b6a9db1a98d7c55c23d69fc8d0.jpg,https://store-tsutaya.tsite.jp/images/cache/tmb/aa025e195e11fdee4d04338d9781b826.jpg,4537649189378,バップ,https://www.honyaclub.com/shop/g/g19981626/,"7,370円",new
dvd,6,ALL MV COLLECTION2~あの時の彼女たち~,乃木坂46,https://store-tsutaya.tsite.jp/item/sell_dvd/4547366461879.html,https://store-tsutaya.tsite.jp/images/cache/tmb/14c4083d8b046538e0d97147bab22ff4.jpg,https://store-tsutaya.tsite.jp/images/cache/tmb/32422924697baed6d4e00c0f4f616711.jpg,4547366461879,ソニー・ミュージックソリューションズ,https://www.honyaclub.com/shop/g/g19976074/,"13,200円",new
dvd,7,YUZU ALL TIME BEST LIVE AGAIN 1997-2007,ゆず,https://store-tsutaya.tsite.jp/item/sell_dvd/4537649189361.html,https://store-tsutaya.tsite.jp/images/cache/tmb/8f0ee19edf95d513d4b6f64f0897e10f.jpg,https://store-tsutaya.tsite.jp/images/cache/tmb/41f4eebdc789c4a22796794323b04f91.jpg,4537649189361,バップ,https://www.honyaclub.com/shop/g/g19981624/,"7,370円",new
dvd,8,ワイルド・スピード/スーパーコンボ,ドゥエイン・ジョンソン,https://store-tsutaya.tsite.jp/item/sell_dvd/4988102870706.html,https://store-tsutaya.tsite.jp/images/cache/tmb/58e7be84943ee5143fe0f2821bcbbe9e.jpg,https://store-tsutaya.tsite.jp/images/cache/tmb/45ae0613588d31f14c6753d7b239fc2c.jpg,4988102870706,NBCユニバーサル・エンターテイメントジャパン,https://www.honyaclub.com/shop/g/g19884693/,"1,572円",down
dvd,9,アリータ:バトル・エンジェル,ローサ・サラザール,https://store-tsutaya.tsite.jp/item/sell_dvd/4959241778055.html,https://store-tsutaya.tsite.jp/images/cache/tmb/d86e2498366cabb7045604ea5295fb44.jpg,https://store-tsutaya.tsite.jp/images/cache/tmb/20ee1b612fe3e4178d23dfec0bcae7fd.jpg,4959241778055,ウォルト・ディズニー・ジャパン,https://www.honyaclub.com/shop/g/g19963291/,"1,572円",down
dvd,10,アナと雪の女王2(数量限定),（ディズニー）,https://store-tsutaya.tsite.jp/item/sell_dvd/4959241777324.html,https://store-tsutaya.tsite.jp/images/cache/tmb/328ff3212ba436943d86d52da891a905.jpg,https://store-tsutaya.tsite.jp/images/cache/tmb/402a34b251e10fc555331e333c05dad2.jpg,4959241777324,ウォルト・ディズニー・ジャパン,https://www.honyaclub.com/shop/g/g19852870/,"3,080円",down
game,1,スーパーマリオ 3Dコレクション,Nintendo Switch,https://store-tsutaya.tsite.jp/item/sell_game/4902370546057.html,https://store-tsutaya.tsite.jp/images/cache/tmb/515f203263f55e7fe11ffd5643ba5807.jpg,https://store-tsutaya.tsite.jp/images/cache/tmb/940e04848096301b39c19e38f719a4ac.jpg,4902370546057,任天堂,--,--,new
game,2,eFootball ウイニングイレブン 2021 SEASON UPDATE,PS4,https://store-tsutaya.tsite.jp/item/sell_game/4988602173116.html,https://store-tsutaya.tsite.jp/images/cache/tmb/2e8bda7bcbeb31a296ae3801e5afb288.jpg,https://store-tsutaya.tsite.jp/images/cache/tmb/d3b61d43d0304edbf6f8de4abf2b4038.jpg,4988602173116,コナミ,--,--,new
game,3,リングフィット アドベンチャー,Nintendo Switch,https://store-tsutaya.tsite.jp/item/sell_game/4902370543278.html,https://store-tsutaya.tsite.jp/images/cache/tmb/e6abe76933a692a541d33ac4f89f25cb.jpg,https://store-tsutaya.tsite.jp/images/cache/tmb/3784d54d8c60a17f83b0469b34e81ddb.jpg,4902370543278,任天堂,--,--,down
game,4,あつまれ どうぶつの森,Nintendo Switch,https://store-tsutaya.tsite.jp/item/sell_game/4902370545319.html,https://store-tsutaya.tsite.jp/images/cache/tmb/913b7075d498af84c2eb8ae17a475654.jpg,https://store-tsutaya.tsite.jp/images/cache/tmb/c4a3ac9aa436b3fc4fd268b19dd1b741.jpg,4902370545319,任天堂,--,--,down
game,5,プロ野球 ファミスタ 2020,Nintendo Switch,https://store-tsutaya.tsite.jp/item/sell_game/4582528414874.html,https://store-tsutaya.tsite.jp/images/cache/tmb/70559b85275bc2f57adc13c4bae2e33e.jpg,https://store-tsutaya.tsite.jp/images/cache/tmb/897fe5d30c3119c47dd48f1db168b486.jpg,4582528414874,バンダイナムコエンターテインメント,--,--,new
game,6,Minecraft Dungeons Hero Edition,Nintendo Switch,https://store-tsutaya.tsite.jp/item/sell_game/4549576174112.html,https://store-tsutaya.tsite.jp/images/cache/tmb/cccea15e5491305f0b8bad2cb5ae1a02.jpg,https://store-tsutaya.tsite.jp/images/cache/tmb/aa7249cf9c8689a2fa8dad360a2ab2ab.jpg,4549576174112,日本マイクロソフト株式会社,--,--,new
game,7,世界のアソビ大全51,Nintendo Switch,https://store-tsutaya.tsite.jp/item/sell_game/4902370545784.html,https://store-tsutaya.tsite.jp/images/cache/tmb/00e6b498d905a365648235789cdfcd93.jpg,https://store-tsutaya.tsite.jp/images/cache/tmb/8f2887f67682acce5df201733e9dea18.jpg,4902370545784,任天堂,--,--,down
game,8,マリオカート8 デラックス,Nintendo Switch,https://store-tsutaya.tsite.jp/item/sell_game/4902370536485.html,https://store-tsutaya.tsite.jp/images/cache/tmb/f9b4e44b7158a4c0db9ba68faada04dc.jpg,https://store-tsutaya.tsite.jp/images/cache/tmb/b6a837e26c31b828325fdfe7dca90c5b.jpg,4902370536485,任天堂,--,--,up
game,9,Ghost of Tsushima,PS4,https://store-tsutaya.tsite.jp/item/sell_game/4948872311755.html,https://store-tsutaya.tsite.jp/images/cache/tmb/0ac5935a442cda4e732fd8a11aa38eba.jpg,https://store-tsutaya.tsite.jp/images/cache/tmb/2c3769be9bb70870ba5b04449b0bd86a.jpg,4948872311755,ソニー・インタラクティブエンタテインメント,--,--,down
game,10,アズールレーン クロスウェーブ,Nintendo Switch,https://store-tsutaya.tsite.jp/item/sell_game/4995857096558.html,https://store-tsutaya.tsite.jp/images/cache/tmb/4f0f780c65b1a5c7d5e0942f2d34ab23.jpg,https://store-tsutaya.tsite.jp/images/cache/tmb/19f9529ebc5c48d04f311ffe65900b70.jpg,4995857096558,コンパイルハート,--,--,new
