﻿cds,1,キミトミタイセカイ(A)(DVD付)[初回限定版],関ジャニ∞,https://store-tsutaya.tsite.jp/item/sell_cd/4582515770570.html,https://store-tsutaya.tsite.jp/images/cache/tmb/bfb11152e2c036f1f49e7ed1eddf6e05.jpg,https://store-tsutaya.tsite.jp/images/cache/tmb/6785b8d8e48641808328efb9f87e1cbd.jpg,4582515770570,ソニー・ミュージックソリューションズ,https://www.honyaclub.com/shop/g/g20129799/,"2,200円",new
cds,2,キミトミタイセカイ(B)(DVD付)[初回限定版],関ジャニ∞,https://store-tsutaya.tsite.jp/item/sell_cd/4582515770587.html,https://store-tsutaya.tsite.jp/images/cache/tmb/fc0c7069975f1150ccbec8cc11a35cd8.jpg,https://store-tsutaya.tsite.jp/images/cache/tmb/2d2b17cc4f076a758db4c5fa067fa580.jpg,4582515770587,ソニー・ミュージックソリューションズ,https://www.honyaclub.com/shop/g/g20129800/,"2,200円",new
cds,3,キミトミタイセカイ(通常盤),関ジャニ∞,https://store-tsutaya.tsite.jp/item/sell_cd/4582515770594.html,https://store-tsutaya.tsite.jp/images/cache/tmb/ba6578697e74cf69ffcc20f1844efa1f.jpg,https://store-tsutaya.tsite.jp/images/cache/tmb/5c61b06403e2901bb0e44a305c691083.jpg,4582515770594,ソニー・ミュージックソリューションズ,https://www.honyaclub.com/shop/g/g20129798/,"1,300円",new
cds,4,雨のち晴れ(DVD付),GENERATIONS from EXILE TRIBE,https://store-tsutaya.tsite.jp/item/sell_cd/4988064773282.html,https://store-tsutaya.tsite.jp/images/cache/tmb/ae0faf5eebaf2713366e831953ae6055.jpg,https://store-tsutaya.tsite.jp/images/cache/tmb/c6806ddbe03b4fb5d2359999a71541a5.jpg,4988064773282,エイベックス・エンタテインメント,https://www.honyaclub.com/shop/g/g20109192/,"1,980円",new
cds,5,僕は僕を好きになる(A)(BD付),乃木坂46,https://store-tsutaya.tsite.jp/item/sell_cd/4547366487244.html,https://store-tsutaya.tsite.jp/images/cache/tmb/ba677ce80cb1426c45b28df30fe75acc.jpg,https://store-tsutaya.tsite.jp/images/cache/tmb/40c8897da8692c6d3cc88a7c994aa245.jpg,4547366487244,ソニー・ミュージックソリューションズ,https://www.honyaclub.com/shop/g/g20093291/,"1,900円",new
cds,6,Grandeur(通常盤),Snow Man,https://store-tsutaya.tsite.jp/item/sell_cd/4988064949564.html,https://store-tsutaya.tsite.jp/images/cache/tmb/b2305ae48bee841fc13f31a3e29715c4.jpg,https://store-tsutaya.tsite.jp/images/cache/tmb/0c947c841d517f5afbb1b5b41493a7bb.jpg,4988064949564,エイベックス・エンタテインメント,https://www.honyaclub.com/shop/g/g20061005/,"1,100円",down
cds,7,僕は僕を好きになる(B)(BD付),乃木坂46,https://store-tsutaya.tsite.jp/item/sell_cd/4547366487251.html,https://store-tsutaya.tsite.jp/images/cache/tmb/d6d7018158ff08e149fd14a50d70626c.jpg,https://store-tsutaya.tsite.jp/images/cache/tmb/bc4b178b588348f30d1cc2dd02871cbb.jpg,4547366487251,ソニー・ミュージックソリューションズ,https://www.honyaclub.com/shop/g/g20093292/,"1,900円",new
cds,8,僕は僕を好きになる(C)(BD付),乃木坂46,https://store-tsutaya.tsite.jp/item/sell_cd/4547366487268.html,https://store-tsutaya.tsite.jp/images/cache/tmb/0d9c6e74ba69dd508f7a4e7b9c514bef.jpg,https://store-tsutaya.tsite.jp/images/cache/tmb/ac4fb18b89bef9aaa826d1e5f6c36f07.jpg,4547366487268,ソニー・ミュージックソリューションズ,https://www.honyaclub.com/shop/g/g20093293/,"1,900円",new
cds,9,僕は僕を好きになる(D)(BD付),乃木坂46,https://store-tsutaya.tsite.jp/item/sell_cd/4547366487282.html,https://store-tsutaya.tsite.jp/images/cache/tmb/9f72dd4342e0b42e6798ebdef74fbf9e.jpg,https://store-tsutaya.tsite.jp/images/cache/tmb/fcc998b6326053f27a2695f7589baa39.jpg,4547366487282,ソニー・ミュージックソリューションズ,https://www.honyaclub.com/shop/g/g20093294/,"1,900円",new
cds,10,Grandeur(B)(DVD付)[初回限定版],Snow Man,https://store-tsutaya.tsite.jp/item/sell_cd/4988064949557.html,https://store-tsutaya.tsite.jp/images/cache/tmb/088ed628a39dc276bbb1f6cd434d1e11.jpg,https://store-tsutaya.tsite.jp/images/cache/tmb/1a113bf7d6bfd5af758334bbf270eba4.jpg,4988064949557,エイベックス・エンタテインメント,https://www.honyaclub.com/shop/g/g20061004/,"1,760円",down
cda,1,ONE WISH e.p.(DVD付)[初回限定版],MAN WITH A MISSION,https://store-tsutaya.tsite.jp/item/sell_cd/4547366485264.html,https://store-tsutaya.tsite.jp/images/cache/tmb/df24f9eab9f18f3108db328df9b487e8.jpg,https://store-tsutaya.tsite.jp/images/cache/tmb/3b813ad1888a05cda3f10e2eb80a0ffe.jpg,4547366485264,ソニー・ミュージックソリューションズ,https://www.honyaclub.com/shop/g/g20092431/,"3,080円",new
cda,2,SEKAI NO OWARI 2010-2019(DVD付)[初回限定版],SEKAI NO OWARI,https://store-tsutaya.tsite.jp/item/sell_cd/4988061867120.html,https://store-tsutaya.tsite.jp/images/cache/tmb/f8df18a8cce74f082e55bfb3e3096ae4.jpg,https://store-tsutaya.tsite.jp/images/cache/tmb/ee9484c8df0ebd280553314deabdebc3.jpg,4988061867120,バップ,https://www.honyaclub.com/shop/g/g19856876/,"5,280円",new
cda,3,SEKAI NO OWARI 2010-2019(通常盤),SEKAI NO OWARI,https://store-tsutaya.tsite.jp/item/sell_cd/4988061867137.html,https://store-tsutaya.tsite.jp/images/cache/tmb/33c79c74ba9741eb7dab8031e297a891.jpg,https://store-tsutaya.tsite.jp/images/cache/tmb/e9fd212224b691bc1ed202503a586579.jpg,4988061867137,バップ,https://www.honyaclub.com/shop/g/g19856877/,"3,630円",new
cda,4,ぐされ(通常盤),ずっと真夜中でいいのに。,https://store-tsutaya.tsite.jp/item/sell_cd/4988031410264.html,https://store-tsutaya.tsite.jp/images/cache/tmb/1bd0de2b53c4a7a3263f0fca2ec53c58.jpg,https://store-tsutaya.tsite.jp/images/cache/tmb/379dcba95f5ecd6169b72c9a6066b606.jpg,4988031410264,ユニバーサル・ミュージック,https://www.honyaclub.com/shop/g/g20073454/,"3,300円",new
cda,5,THE MILLENNIUM PARADE,millennium parade,https://store-tsutaya.tsite.jp/item/sell_cd/4547366485660.html,https://store-tsutaya.tsite.jp/images/cache/tmb/2ce0d00c42a9bea0c94792f5a2461b25.jpg,https://store-tsutaya.tsite.jp/images/cache/tmb/3c0288039f69db7bdd4fd3b2b397b8c9.jpg,4547366485660,ソニー・ミュージックソリューションズ,https://www.honyaclub.com/shop/g/g20095068/,"3,300円",new
cda,6,THE MILLENNIUM PARADE(BD付)[初回限定版],millennium parade,https://store-tsutaya.tsite.jp/item/sell_cd/4547366485653.html,https://store-tsutaya.tsite.jp/images/cache/tmb/c5a4465987050684b3706cfeb62ee4b4.jpg,https://store-tsutaya.tsite.jp/images/cache/tmb/8907899ee418fecfbc04e4ba1603ec35.jpg,4547366485653,ソニー・ミュージックソリューションズ,https://www.honyaclub.com/shop/g/g20095067/,"4,950円",new
cda,7,ぐされ(LIVE盤)(BD付)[初回限定版],ずっと真夜中でいいのに。,https://store-tsutaya.tsite.jp/item/sell_cd/4988031410257.html,https://store-tsutaya.tsite.jp/images/cache/tmb/7a368fc7486d00f14fbb7cefc323745e.jpg,https://store-tsutaya.tsite.jp/images/cache/tmb/5c72d26ba45b8a2755289b568fdd3b95.jpg,4988031410257,ユニバーサル・ミュージック,https://www.honyaclub.com/shop/g/g20073456/,"6,380円",new
cda,8,SEKAI NO OWARI 2010-2019(プレミアムBOX)(DVD付)[初回限定版],SEKAI NO OWARI,https://store-tsutaya.tsite.jp/item/sell_cd/4988061867113.html,https://store-tsutaya.tsite.jp/images/cache/tmb/712e0a280b03068602abc7523d54a61b.jpg,https://store-tsutaya.tsite.jp/images/cache/tmb/c58a85a3b3fa2a7bc7de64c4e849ede4.jpg,4988061867113,バップ,https://www.honyaclub.com/shop/g/g19856891/,"19,800円",new
cda,9,THE MILLENNIUM PARADE(完全生産限定盤)(BD付)[初回限定版],millennium parade,https://store-tsutaya.tsite.jp/item/sell_cd/4547366485646.html,https://store-tsutaya.tsite.jp/images/cache/tmb/753e4ff63ab6e53d9d3bdb5292a51207.jpg,https://store-tsutaya.tsite.jp/images/cache/tmb/f4c319e557ca192b494ca54854307aa5.jpg,4547366485646,ソニー・ミュージックソリューションズ,https://www.honyaclub.com/shop/g/g20095066/,"11,000円",new
cda,10,ONE WISH e.p.,MAN WITH A MISSION,https://store-tsutaya.tsite.jp/item/sell_cd/4547366485271.html,https://store-tsutaya.tsite.jp/images/cache/tmb/b902ef502f644396bf4693deba070945.jpg,https://store-tsutaya.tsite.jp/images/cache/tmb/bd5688f860886b41bb6b25104371312e.jpg,4547366485271,ソニー・ミュージックソリューションズ,https://www.honyaclub.com/shop/g/g20092432/,"2,090円",new
dvd,1,Sexy Zone POPxSTEP!? TOUR 2020,Sexy Zone,https://store-tsutaya.tsite.jp/item/sell_dvd/4988031419724.html,https://store-tsutaya.tsite.jp/images/cache/tmb/044a4738b7cc6a5ecb96a5524d8d6be5.jpg,https://store-tsutaya.tsite.jp/images/cache/tmb/a0626cd7ab63d6124494677b6e94b53e.jpg,4988031419724,ユニバーサル・ミュージック,https://www.honyaclub.com/shop/g/g20116380/,"6,600円",new
dvd,2,Sexy Zone POPxSTEP!? TOUR 2020,Sexy Zone,https://store-tsutaya.tsite.jp/item/sell_dvd/4988031419717.html,https://store-tsutaya.tsite.jp/images/cache/tmb/24dac77a732dc4b781c91fc067daeed2.jpg,https://store-tsutaya.tsite.jp/images/cache/tmb/6eb4f5508964a636c654d68c1841bd18.jpg,4988031419717,ユニバーサル・ミュージック,https://www.honyaclub.com/shop/g/g20116382/,"7,150円",new
dvd,3,Sexy Zone POPxSTEP!? TOUR 2020(通常盤),Sexy Zone,https://store-tsutaya.tsite.jp/item/sell_dvd/4988031419748.html,https://store-tsutaya.tsite.jp/images/cache/tmb/679af9bd5175c271a8ca3f1e770df0d0.jpg,https://store-tsutaya.tsite.jp/images/cache/tmb/374e44fc3807a08d7f9d9d3c1afabd9c.jpg,4988031419748,ユニバーサル・ミュージック,https://www.honyaclub.com/shop/g/g20116381/,"5,500円",new
dvd,4,Sexy Zone POPxSTEP!? TOUR 2020(通常盤),Sexy Zone,https://store-tsutaya.tsite.jp/item/sell_dvd/4988031419731.html,https://store-tsutaya.tsite.jp/images/cache/tmb/cdc996ddc88ed931fb11f2bf77a9fe67.jpg,https://store-tsutaya.tsite.jp/images/cache/tmb/5c2002ae8dd0e6675d59e06f837a2aaf.jpg,4988031419731,ユニバーサル・ミュージック,https://www.honyaclub.com/shop/g/g20116383/,"6,050円",new
dvd,5,映画クレヨンしんちゃん 激突! ラクガキングダムとほぼ四人の勇者,臼井儀人,https://store-tsutaya.tsite.jp/item/sell_dvd/4934569650504.html,https://store-tsutaya.tsite.jp/images/cache/tmb/067413fbbc4e36a412b002e8e0c8adee.jpg,https://store-tsutaya.tsite.jp/images/cache/tmb/ee07486a13a5fdf4be3258d059105f69.jpg,4934569650504,バンダイナムコアーツ,https://www.honyaclub.com/shop/g/g20077645/,"4,180円",new
dvd,6,今日から俺は!!劇場版,西森博之,https://store-tsutaya.tsite.jp/item/sell_dvd/4988021141215.html,https://store-tsutaya.tsite.jp/images/cache/tmb/1ce7b934b2bd5431dede0709c4641385.jpg,https://store-tsutaya.tsite.jp/images/cache/tmb/e9d8cca16cff264ac82c877b762fecda.jpg,4988021141215,バップ,https://www.honyaclub.com/shop/g/g20053346/,"4,180円",down
dvd,7,事故物件 恐い間取り(豪華版),亀梨和也,https://store-tsutaya.tsite.jp/item/sell_dvd/4988105106970.html,https://store-tsutaya.tsite.jp/images/cache/tmb/a3089a6ee45637ce7ee9f22c626fe269.jpg,https://store-tsutaya.tsite.jp/images/cache/tmb/2b28605f939acbbdef5b799103d8e3df.jpg,4988105106970,松竹,https://www.honyaclub.com/shop/g/g20060428/,"7,370円",new
dvd,8,TENET テネット ブルーレイ&DVDセット,（洋画）,https://store-tsutaya.tsite.jp/item/sell_dvd/4548967446340.html,https://store-tsutaya.tsite.jp/images/cache/tmb/cfb44ffae7836c09811c425a6e2fb38c.jpg,https://store-tsutaya.tsite.jp/images/cache/tmb/f8893e13c21a81b2cff6f2d5fa52734b.jpg,4548967446340,NBCユニバーサル・エンターテイメントジャパン,https://www.honyaclub.com/shop/g/g20073369/,"4,980円",stay
dvd,9,僕たちの嘘と真実 Documentary of 欅坂46 Blu-rayコンプリートBOX,欅坂46,https://store-tsutaya.tsite.jp/item/sell_dvd/4988104127983.html,https://store-tsutaya.tsite.jp/images/cache/tmb/9f86d6093afc89da5cf16bdd7bb09f1a.jpg,https://store-tsutaya.tsite.jp/images/cache/tmb/76751913f34c9e0af5a8c618c685f851.jpg,4988104127983,東宝,https://www.honyaclub.com/shop/g/g20093265/,"14,300円",new
dvd,10,BTS WORLD TOUR 'LOVE YOURSELF:SPEAK YOURSELF'- JAPAN EDITION(通常盤),BTS,https://store-tsutaya.tsite.jp/item/sell_dvd/4988031378489.html,https://store-tsutaya.tsite.jp/images/cache/tmb/e347d6f80362e517a3ab7ef120c3b510.jpg,https://store-tsutaya.tsite.jp/images/cache/tmb/b332e0a1a10963ce81d3922f19412854.jpg,4988031378489,ユニバーサル・ミュージック,https://www.honyaclub.com/shop/g/g19804656/,"5,300円",new
game,1,スーパーマリオ 3Dワールド + フューリーワールド,Nintendo Switch,https://store-tsutaya.tsite.jp/item/sell_game/4902370547115.html,https://store-tsutaya.tsite.jp/images/cache/tmb/7e4b253e3021c9a0d51ee2a3a715bcae.jpg,https://store-tsutaya.tsite.jp/images/cache/tmb/d1227a4c593972ae6d3ec1151b4933db.jpg,4902370547115,任天堂,--,--,new
game,2,桃太郎電鉄 ~昭和 平成 令和も定番!~,Nintendo Switch,https://store-tsutaya.tsite.jp/item/sell_game/4988602173222.html,https://store-tsutaya.tsite.jp/images/cache/tmb/01fde22f14cb4afbb0a9086e46777e49.jpg,https://store-tsutaya.tsite.jp/images/cache/tmb/01ff55a63666562c0b8ddfe7a71fac9a.jpg,4988602173222,コナミ,--,--,down
game,3,リトルナイトメア 2,Nintendo Switch,https://store-tsutaya.tsite.jp/item/sell_game/4582528436494.html,https://store-tsutaya.tsite.jp/images/cache/tmb/cafa0b644ff05b15e55dffb342341c7a.jpg,https://store-tsutaya.tsite.jp/images/cache/tmb/488a02ce1e58c2b18e0892c5a8bd888a.jpg,4582528436494,バンダイナムコエンターテインメント,--,--,new
game,4,リングフィット アドベンチャー,Nintendo Switch,https://store-tsutaya.tsite.jp/item/sell_game/4902370543278.html,https://store-tsutaya.tsite.jp/images/cache/tmb/e6abe76933a692a541d33ac4f89f25cb.jpg,https://store-tsutaya.tsite.jp/images/cache/tmb/3784d54d8c60a17f83b0469b34e81ddb.jpg,4902370543278,任天堂,--,--,down
game,5,リトルナイトメア 2,PS4,https://store-tsutaya.tsite.jp/item/sell_game/4582528436487.html,https://store-tsutaya.tsite.jp/images/cache/tmb/5bafbc17c6de9f9bf3c7ed67b32724bd.jpg,https://store-tsutaya.tsite.jp/images/cache/tmb/f9985f525ac4d148c183fc963e58c420.jpg,4582528436487,バンダイナムコエンターテインメント,--,--,new
game,6,Minecraft,Nintendo Switch,https://store-tsutaya.tsite.jp/item/sell_game/4549576094113.html,https://store-tsutaya.tsite.jp/images/cache/tmb/6041460ba41ddb8ae37b11465add17f7.jpg,https://store-tsutaya.tsite.jp/images/cache/tmb/2c4d7eca9a39494877e8ff4cca80580f.jpg,4549576094113,日本マイクロソフト株式会社,--,--,stay
game,7,あつまれ どうぶつの森,Nintendo Switch,https://store-tsutaya.tsite.jp/item/sell_game/4902370545319.html,https://store-tsutaya.tsite.jp/images/cache/tmb/913b7075d498af84c2eb8ae17a475654.jpg,https://store-tsutaya.tsite.jp/images/cache/tmb/c4a3ac9aa436b3fc4fd268b19dd1b741.jpg,4902370545319,任天堂,--,--,down
game,8,マリオカート8 デラックス,Nintendo Switch,https://store-tsutaya.tsite.jp/item/sell_game/4902370536485.html,https://store-tsutaya.tsite.jp/images/cache/tmb/f9b4e44b7158a4c0db9ba68faada04dc.jpg,https://store-tsutaya.tsite.jp/images/cache/tmb/b6a837e26c31b828325fdfe7dca90c5b.jpg,4902370536485,任天堂,--,--,down
game,9,大乱闘スマッシュブラザーズ SPECIAL,Nintendo Switch,https://store-tsutaya.tsite.jp/item/sell_game/4902370540734.html,https://store-tsutaya.tsite.jp/images/cache/tmb/4346942721b6a95e9fd18635954c7cfe.jpg,https://store-tsutaya.tsite.jp/images/cache/tmb/2b8f0a352c249987b000f8c6172cb32d.jpg,4902370540734,任天堂,--,--,down
game,10,世界のアソビ大全51,Nintendo Switch,https://store-tsutaya.tsite.jp/item/sell_game/4902370545784.html,https://store-tsutaya.tsite.jp/images/cache/tmb/00e6b498d905a365648235789cdfcd93.jpg,https://store-tsutaya.tsite.jp/images/cache/tmb/8f2887f67682acce5df201733e9dea18.jpg,4902370545784,任天堂,--,--,down
