﻿cds,1,Luv Bias(通常盤),Kis-My-Ft2,https://store-tsutaya.tsite.jp/item/sell_cd/4988064949922.html,https://store-tsutaya.tsite.jp/images/cache/tmb/9b40e0067176e343c0d80dc5b81eae20.jpg,https://store-tsutaya.tsite.jp/images/cache/tmb/16aa382b13825f7216dcd91f0bb92f41.jpg,4988064949922,エイベックス・エンタテインメント,https://www.honyaclub.com/shop/g/g20122459/,"1,100円",new
cds,2,Luv Bias(A)(DVD付)[初回限定版],Kis-My-Ft2,https://store-tsutaya.tsite.jp/item/sell_cd/4988064949908.html,https://store-tsutaya.tsite.jp/images/cache/tmb/2284dc31db4662f982b1c878e5758419.jpg,https://store-tsutaya.tsite.jp/images/cache/tmb/37ee59a16602d325c5de3f342164cee9.jpg,4988064949908,エイベックス・エンタテインメント,https://www.honyaclub.com/shop/g/g20122457/,"1,760円",new
cds,3,Luv Bias(B)(DVD付)[初回限定版],Kis-My-Ft2,https://store-tsutaya.tsite.jp/item/sell_cd/4988064949915.html,https://store-tsutaya.tsite.jp/images/cache/tmb/405e5f95c1de7d7b763bc3753daecab7.jpg,https://store-tsutaya.tsite.jp/images/cache/tmb/f75b70323f48f6c5a9754c5c35eff0c8.jpg,4988064949915,エイベックス・エンタテインメント,https://www.honyaclub.com/shop/g/g20122458/,"1,760円",new
cds,4,僕が僕じゃないみたいだ(A)(DVD付)[初回限定版],SixTONES,https://store-tsutaya.tsite.jp/item/sell_cd/4547366493030.html,https://store-tsutaya.tsite.jp/images/cache/tmb/f12329cddb9dbda345c5b02866cd61a8.jpg,https://store-tsutaya.tsite.jp/images/cache/tmb/47f8ff411643e23ac0f81d149cbf7583.jpg,4547366493030,ソニー・ミュージックソリューションズ,https://www.honyaclub.com/shop/g/g20117512/,"1,760円",down
cds,5,僕が僕じゃないみたいだ(通常盤),SixTONES,https://store-tsutaya.tsite.jp/item/sell_cd/4547366493054.html,https://store-tsutaya.tsite.jp/images/cache/tmb/9df8871e21869c5caad295420d16670e.jpg,https://store-tsutaya.tsite.jp/images/cache/tmb/3ab447f11dd0a0264b9422502f9fc152.jpg,4547366493054,ソニー・ミュージックソリューションズ,https://www.honyaclub.com/shop/g/g20117514/,"1,100円",down
cds,6,Universe(DVD付),Official髭男dism,https://store-tsutaya.tsite.jp/item/sell_cd/4988013840874.html,https://store-tsutaya.tsite.jp/images/cache/tmb/13a77730261f99132bea735ecd837d5c.jpg,https://store-tsutaya.tsite.jp/images/cache/tmb/be56f8528c88f67e59953eb59d7d27db.jpg,4988013840874,ポニーキャニオン,https://www.honyaclub.com/shop/g/g20126454/,"4,950円",new
cds,7,CAN YOU WALK WITH ME??(通常盤),柏木由紀,https://store-tsutaya.tsite.jp/item/sell_cd/4988003581299.html,https://store-tsutaya.tsite.jp/images/cache/tmb/8e850f2707e4dbd866ba875546916abd.jpg,https://store-tsutaya.tsite.jp/images/cache/tmb/cae7fd6dc67b4277351c765c32923d06.jpg,4988003581299,キングレコード,https://www.honyaclub.com/shop/g/g20144835/,"1,300円",new
cds,8,僕が僕じゃないみたいだ(B)(DVD付)[初回限定版],SixTONES,https://store-tsutaya.tsite.jp/item/sell_cd/4547366493047.html,https://store-tsutaya.tsite.jp/images/cache/tmb/27ca8d7b4ec32185054e0e48b1c10d81.jpg,https://store-tsutaya.tsite.jp/images/cache/tmb/00ade40865b6f3cdfa1a13ae1323d332.jpg,4547366493047,ソニー・ミュージックソリューションズ,https://www.honyaclub.com/shop/g/g20117513/,"1,760円",down
cds,9,内緒,アイナ・ジ・エンド,https://store-tsutaya.tsite.jp/item/sell_cd/4988064949977.html,https://store-tsutaya.tsite.jp/images/cache/tmb/c4e414649633eb646de36d5814871744.jpg,https://store-tsutaya.tsite.jp/images/cache/tmb/e8a706195637e204d2e664c0b369a3f3.jpg,4988064949977,エイベックス・エンタテインメント,https://www.honyaclub.com/shop/g/g20175479/,"1,980円",new
cds,10,Grandeur(通常盤),Snow Man,https://store-tsutaya.tsite.jp/item/sell_cd/4988064949564.html,https://store-tsutaya.tsite.jp/images/cache/tmb/b2305ae48bee841fc13f31a3e29715c4.jpg,https://store-tsutaya.tsite.jp/images/cache/tmb/0c947c841d517f5afbb1b5b41493a7bb.jpg,4988064949564,エイベックス・エンタテインメント,https://www.honyaclub.com/shop/g/g20061005/,"1,100円",down
cda,1,SZ10TH(期間限定スペシャルプライス盤)[期間限定版],Sexy Zone,https://store-tsutaya.tsite.jp/item/sell_cd/4988031423523.html,https://store-tsutaya.tsite.jp/images/cache/tmb/c7025262bd956e13a8e31b420b946405.jpg,https://store-tsutaya.tsite.jp/images/cache/tmb/0d47898523d544a75f96065be50491df.jpg,4988031423523,ユニバーサル・ミュージック,https://www.honyaclub.com/shop/g/g20149504/,"3,300円",new
cda,2,SZ10TH(B)(DVD付)[初回限定版],Sexy Zone,https://store-tsutaya.tsite.jp/item/sell_cd/4988031423516.html,https://store-tsutaya.tsite.jp/images/cache/tmb/13b6ba048e8438778a62c337bb73cae4.jpg,https://store-tsutaya.tsite.jp/images/cache/tmb/89da970b3d77b64ed906df950103c521.jpg,4988031423516,ユニバーサル・ミュージック,https://www.honyaclub.com/shop/g/g20149503/,"4,950円",new
cda,3,SZ10TH(A)(BD付)[初回限定版],Sexy Zone,https://store-tsutaya.tsite.jp/item/sell_cd/4988031423509.html,https://store-tsutaya.tsite.jp/images/cache/tmb/41aff0e9db90ade2c6c578deb70de875.jpg,https://store-tsutaya.tsite.jp/images/cache/tmb/ed2a5eef55c2117a0f53bff1d0354363.jpg,4988031423509,ユニバーサル・ミュージック,https://www.honyaclub.com/shop/g/g20149502/,"4,950円",new
cda,4,どうしたって伝えられないから(B)(DVD付)[初回限定版],aiko,https://store-tsutaya.tsite.jp/item/sell_cd/4988013512399.html,https://store-tsutaya.tsite.jp/images/cache/tmb/f70f01f33f0852b6d0a0542ad17bd02a.jpg,https://store-tsutaya.tsite.jp/images/cache/tmb/ea96ca209d4ef49124cbbe857718cb5d.jpg,4988013512399,ポニーキャニオン,https://www.honyaclub.com/shop/g/g20142701/,"4,620円",new
cda,5,どうしたって伝えられないから(A)(BD付)[初回限定版],aiko,https://store-tsutaya.tsite.jp/item/sell_cd/4988013512290.html,https://store-tsutaya.tsite.jp/images/cache/tmb/8c8d8beaff6293aa30bb50dae9025683.jpg,https://store-tsutaya.tsite.jp/images/cache/tmb/5c1f3d74e008d51a7ad30b63c6b46f30.jpg,4988013512290,ポニーキャニオン,https://www.honyaclub.com/shop/g/g20142700/,"4,620円",new
cda,6,AMUSIC(A)(DVD付)[初回限定版],sumika,https://store-tsutaya.tsite.jp/item/sell_cd/4547366491845.html,https://store-tsutaya.tsite.jp/images/cache/tmb/116a311e95adfbf10e5fbde749c450fe.jpg,https://store-tsutaya.tsite.jp/images/cache/tmb/c1219fb2e7b573c2c9b835a1206a83d0.jpg,4547366491845,ソニー・ミュージックソリューションズ,https://www.honyaclub.com/shop/g/g20123313/,"5,400円",new
cda,7,BE (Essential Edition),BTS,https://store-tsutaya.tsite.jp/item/sell_cd/8809633189531.html,https://store-tsutaya.tsite.jp/images/cache/tmb/f23ee926f844da48ff1d49c2cb1dcf57.png,https://store-tsutaya.tsite.jp/images/cache/tmb/a7b3d84bbb33aa59332f6b0756458c52.png,8809633189531,輸入盤,,--,new
cda,8,ヒプノシスマイク -Division Rap Battle- 2nd D.R.B『どついたれ本舗 VS Buster Bros!!!』,ヒプノシスマイク -Division Rap Battle-/どついたれ本舗、Buster Bros!!!,https://store-tsutaya.tsite.jp/item/sell_cd/4988003579432.html,https://store-tsutaya.tsite.jp/images/cache/tmb/8f559a07cfd96daa23a67c40bd6f94bb.jpg,https://store-tsutaya.tsite.jp/images/cache/tmb/5c2c5b780046d29c9af84c5695da0a51.jpg,4988003579432,キングレコード,https://www.honyaclub.com/shop/g/g20124418/,"2,200円",new
cda,9,どうしたって伝えられないから,aiko,https://store-tsutaya.tsite.jp/item/sell_cd/4988013512498.html,https://store-tsutaya.tsite.jp/images/cache/tmb/c0b96d9395bbc353f755a9c511459f3f.jpg,https://store-tsutaya.tsite.jp/images/cache/tmb/fb5a0941bec4469b88bcf210b523996f.jpg,4988013512498,ポニーキャニオン,https://www.honyaclub.com/shop/g/g20142702/,"3,204円",new
cda,10,AMUSIC(B)(DVD付)[初回限定版],sumika,https://store-tsutaya.tsite.jp/item/sell_cd/4547366491852.html,https://store-tsutaya.tsite.jp/images/cache/tmb/d3d8acac4db617983e4d04e902141714.jpg,https://store-tsutaya.tsite.jp/images/cache/tmb/cfb6e0acd4497cd6704a635a22cc6390.jpg,4547366491852,ソニー・ミュージックソリューションズ,https://www.honyaclub.com/shop/g/g20123314/,"4,800円",new
dvd,1,Snow Man ASIA TOUR 2D.2D.,Snow Man,https://store-tsutaya.tsite.jp/item/sell_dvd/4988064279746.html,https://store-tsutaya.tsite.jp/images/cache/tmb/02fb589ec73cc209c0abfd6c2f7d82a5.jpg,https://store-tsutaya.tsite.jp/images/cache/tmb/d33efbaabc9debc2a266ca788656560f.jpg,4988064279746,エイベックス・エンタテインメント,https://www.honyaclub.com/shop/g/g20136459/,"7,700円",new
dvd,2,Snow Man ASIA TOUR 2D.2D.,Snow Man,https://store-tsutaya.tsite.jp/item/sell_dvd/4988064279784.html,https://store-tsutaya.tsite.jp/images/cache/tmb/c6a453a2c80d0a67ce8945c442559082.jpg,https://store-tsutaya.tsite.jp/images/cache/tmb/b0ad384b2b6a6109d41103826aecaeb6.jpg,4988064279784,エイベックス・エンタテインメント,https://www.honyaclub.com/shop/g/g20136461/,"7,700円",new
dvd,3,Snow Man ASIA TOUR 2D.2D.(通常盤),Snow Man,https://store-tsutaya.tsite.jp/item/sell_dvd/4988064279814.html,https://store-tsutaya.tsite.jp/images/cache/tmb/3fc7e590d9d76b23aaca3c4b46fa16cf.jpg,https://store-tsutaya.tsite.jp/images/cache/tmb/5ef88f811338d5dd5e7080f275a07429.jpg,4988064279814,エイベックス・エンタテインメント,https://www.honyaclub.com/shop/g/g20136460/,"6,380円",new
dvd,4,Snow Man ASIA TOUR 2D.2D.(通常盤),Snow Man,https://store-tsutaya.tsite.jp/item/sell_dvd/4988064279845.html,https://store-tsutaya.tsite.jp/images/cache/tmb/fc138bf9331d1e561952571bab8e82d7.jpg,https://store-tsutaya.tsite.jp/images/cache/tmb/bccac740871d01ee6ec40dad29aa151d.jpg,4988064279845,エイベックス・エンタテインメント,https://www.honyaclub.com/shop/g/g20136462/,"6,380円",new
dvd,5,King & Prince CONCERT TOUR 2020 ~L&~,King&Prince,https://store-tsutaya.tsite.jp/item/sell_dvd/4988031421390.html,https://store-tsutaya.tsite.jp/images/cache/tmb/3388616e7b6915bbd8944087acb158c5.jpg,https://store-tsutaya.tsite.jp/images/cache/tmb/c1ce6915b239a88c53acb250eea99f64.jpg,4988031421390,ユニバーサル・ミュージック,https://www.honyaclub.com/shop/g/g20137051/,"6,600円",new
dvd,6,King & Prince CONCERT TOUR 2020 ~L&~,King&Prince,https://store-tsutaya.tsite.jp/item/sell_dvd/4988031421383.html,https://store-tsutaya.tsite.jp/images/cache/tmb/e3f86af371d9d52b874ef3d5789afe7d.jpg,https://store-tsutaya.tsite.jp/images/cache/tmb/a53e1c648201371189b0b69c97d2ebb2.jpg,4988031421383,ユニバーサル・ミュージック,https://www.honyaclub.com/shop/g/g20137049/,"7,150円",new
dvd,7,水の温度,上西怜,https://store-tsutaya.tsite.jp/item/sell_dvd/4571487589037.html,https://store-tsutaya.tsite.jp/images/cache/tmb/892495afaccdf59f52b8166898ca6326.jpg,https://store-tsutaya.tsite.jp/images/cache/tmb/f47ce48f40b4eeb08dbce235bb7adb65.jpg,4571487589037,ソニー・ミュージックソリューションズ,https://www.honyaclub.com/shop/g/g20138388/,"4,180円",new
dvd,8,水の温度,上西怜,https://store-tsutaya.tsite.jp/item/sell_dvd/4571487589020.html,https://store-tsutaya.tsite.jp/images/cache/tmb/50808bb6f21a8b9bd6b669e87e0ce7ff.jpg,https://store-tsutaya.tsite.jp/images/cache/tmb/9d156cf7aa401cff3da1f736b996516d.jpg,4571487589020,ソニー・ミュージックソリューションズ,https://www.honyaclub.com/shop/g/g20138387/,"3,080円",new
dvd,9,King & Prince CONCERT TOUR 2020 ~L&~(通常盤),King&Prince,https://store-tsutaya.tsite.jp/item/sell_dvd/4988031421413.html,https://store-tsutaya.tsite.jp/images/cache/tmb/3f62eca8dfd8bb14a3c79f2d1a0755d4.jpg,https://store-tsutaya.tsite.jp/images/cache/tmb/74dce1b479118b559adb66d241daede6.jpg,4988031421413,ユニバーサル・ミュージック,https://www.honyaclub.com/shop/g/g20137052/,"5,500円",new
dvd,10,映画『映像研には手を出すな!』 Blu-ray スペシャル・エディション,大童澄瞳,https://store-tsutaya.tsite.jp/item/sell_dvd/4988104128560.html,https://store-tsutaya.tsite.jp/images/cache/tmb/417baf9bb85476832986f32295013b66.jpg,https://store-tsutaya.tsite.jp/images/cache/tmb/182b321b6dc8c2a34080ab69a4991879.jpg,4988104128560,東宝,https://www.honyaclub.com/shop/g/g20132914/,"8,580円",new
game,1,牧場物語 オリーブタウンと希望の大地,Nintendo Switch,https://store-tsutaya.tsite.jp/item/sell_game/4535506303233.html,https://store-tsutaya.tsite.jp/images/cache/tmb/09b4553329165f7d3884559701b77b95.jpg,https://store-tsutaya.tsite.jp/images/cache/tmb/514a5c29d79cf0e2b50841d6ffdd49fe.jpg,4535506303233,マーベラスエンターテイメント,--,--,new
game,2,スーパーマリオ 3Dワールド + フューリーワールド,Nintendo Switch,https://store-tsutaya.tsite.jp/item/sell_game/4902370547115.html,https://store-tsutaya.tsite.jp/images/cache/tmb/7e4b253e3021c9a0d51ee2a3a715bcae.jpg,https://store-tsutaya.tsite.jp/images/cache/tmb/d1227a4c593972ae6d3ec1151b4933db.jpg,4902370547115,任天堂,--,--,down
game,3,ブレイブリーデフォルトII,Nintendo Switch,https://store-tsutaya.tsite.jp/item/sell_game/4988601010856.html,https://store-tsutaya.tsite.jp/images/cache/tmb/f7575156aec11e4a91427d6d851097c5.jpg,https://store-tsutaya.tsite.jp/images/cache/tmb/592a1e18a71fb181a1b07b77c1668799.jpg,4988601010856,スクウェア・エニックス,--,--,new
game,4,桃太郎電鉄 ~昭和 平成 令和も定番!~,Nintendo Switch,https://store-tsutaya.tsite.jp/item/sell_game/4988602173222.html,https://store-tsutaya.tsite.jp/images/cache/tmb/01fde22f14cb4afbb0a9086e46777e49.jpg,https://store-tsutaya.tsite.jp/images/cache/tmb/01ff55a63666562c0b8ddfe7a71fac9a.jpg,4988602173222,コナミ,--,--,down
game,5,リングフィット アドベンチャー,Nintendo Switch,https://store-tsutaya.tsite.jp/item/sell_game/4902370543278.html,https://store-tsutaya.tsite.jp/images/cache/tmb/e6abe76933a692a541d33ac4f89f25cb.jpg,https://store-tsutaya.tsite.jp/images/cache/tmb/3784d54d8c60a17f83b0469b34e81ddb.jpg,4902370543278,任天堂,--,--,down
game,6,大乱闘スマッシュブラザーズ SPECIAL,Nintendo Switch,https://store-tsutaya.tsite.jp/item/sell_game/4902370540734.html,https://store-tsutaya.tsite.jp/images/cache/tmb/4346942721b6a95e9fd18635954c7cfe.jpg,https://store-tsutaya.tsite.jp/images/cache/tmb/2b8f0a352c249987b000f8c6172cb32d.jpg,4902370540734,任天堂,--,--,stay
game,7,あつまれ どうぶつの森,Nintendo Switch,https://store-tsutaya.tsite.jp/item/sell_game/4902370545319.html,https://store-tsutaya.tsite.jp/images/cache/tmb/913b7075d498af84c2eb8ae17a475654.jpg,https://store-tsutaya.tsite.jp/images/cache/tmb/c4a3ac9aa436b3fc4fd268b19dd1b741.jpg,4902370545319,任天堂,--,--,down
game,8,Minecraft,Nintendo Switch,https://store-tsutaya.tsite.jp/item/sell_game/4549576094113.html,https://store-tsutaya.tsite.jp/images/cache/tmb/6041460ba41ddb8ae37b11465add17f7.jpg,https://store-tsutaya.tsite.jp/images/cache/tmb/2c4d7eca9a39494877e8ff4cca80580f.jpg,4549576094113,日本マイクロソフト株式会社,--,--,down
game,9,マリオカート8 デラックス,Nintendo Switch,https://store-tsutaya.tsite.jp/item/sell_game/4902370536485.html,https://store-tsutaya.tsite.jp/images/cache/tmb/f9b4e44b7158a4c0db9ba68faada04dc.jpg,https://store-tsutaya.tsite.jp/images/cache/tmb/b6a837e26c31b828325fdfe7dca90c5b.jpg,4902370536485,任天堂,--,--,down
game,10,Splatoon 2,Nintendo Switch,https://store-tsutaya.tsite.jp/item/sell_game/4902370537253.html,https://store-tsutaya.tsite.jp/images/cache/tmb/1ea81f5d6866f828bc1f2a40cb145a0a.jpg,https://store-tsutaya.tsite.jp/images/cache/tmb/16820fbbe6bbddf0357f905f83412cd8.jpg,4902370537253,任天堂,--,--,down
