﻿cds,1,NEW ERA,SixTONES,https://store-tsutaya.tsite.jp/item/sell_cd/4547366477566.html,https://store-tsutaya.tsite.jp/images/cache/tmb/88fe0fa895d57aa9a7f0083e7e2deadc.jpg,https://store-tsutaya.tsite.jp/images/cache/tmb/a7c677bc113ba261a98923ee11ceb06c.jpg,4547366477566,ソニー・ミュージックソリューションズ,https://www.honyaclub.com/shop/g/g20032250/,"1,100円",new
cds,2,NEW ERA(DVD付)[初回限定版],SixTONES,https://store-tsutaya.tsite.jp/item/sell_cd/4547366477542.html,https://store-tsutaya.tsite.jp/images/cache/tmb/538656a44c1cbd27cb828ef887b90191.jpg,https://store-tsutaya.tsite.jp/images/cache/tmb/c1bf6a8305b7e2b05635c7da14b57ca1.jpg,4547366477542,ソニー・ミュージックソリューションズ,https://www.honyaclub.com/shop/g/g20032248/,"1,760円",new
cds,3,NEW ERA(期間限定盤)(DVD付)[期間限定版],SixTONES,https://store-tsutaya.tsite.jp/item/sell_cd/4547366477559.html,https://store-tsutaya.tsite.jp/images/cache/tmb/798a4c0ec36231f096427f41c87634bb.jpg,https://store-tsutaya.tsite.jp/images/cache/tmb/741b536f4e8fd967791a9bc4544d27cc.jpg,4547366477559,ソニー・ミュージックソリューションズ,https://www.honyaclub.com/shop/g/g20032249/,"1,760円",new
cds,4,炎(期間生産限定盤)[期間限定版],LiSA,https://store-tsutaya.tsite.jp/item/sell_cd/4547366467550.html,https://store-tsutaya.tsite.jp/images/cache/tmb/65f233388f1e0dded19ca204b7d0c896.jpg,https://store-tsutaya.tsite.jp/images/cache/tmb/676a28c8040d477c7594ba8bc3aa5677.jpg,4547366467550,ソニー・ミュージックソリューションズ,https://www.honyaclub.com/shop/g/g19975557/,"1,430円",up
cds,5,アカシア盤 「アカシア/Gravity」(DVD付),BUMP OF CHICKEN,https://store-tsutaya.tsite.jp/item/sell_cd/4988061896885.html,https://store-tsutaya.tsite.jp/images/cache/tmb/59f4bf80139d01bba0db9f3ccdbd89ed.jpg,https://store-tsutaya.tsite.jp/images/cache/tmb/573a9e6cbebb6a9cc2ba0c70e0b27793.jpg,4988061896885,バップ,https://www.honyaclub.com/shop/g/g20038939/,"2,200円",down
cds,6,炎(DVD付)[初回限定版],LiSA,https://store-tsutaya.tsite.jp/item/sell_cd/4547366467536.html,https://store-tsutaya.tsite.jp/images/cache/tmb/a2039a24df3bd152ebb5d782e26aaf3b.jpg,https://store-tsutaya.tsite.jp/images/cache/tmb/c855fe6003b72a46bd832f03f70c51e2.jpg,4547366467536,ソニー・ミュージックソリューションズ,https://www.honyaclub.com/shop/g/g19975555/,"1,760円",up
cds,7,炎,LiSA,https://store-tsutaya.tsite.jp/item/sell_cd/4547366467543.html,https://store-tsutaya.tsite.jp/images/cache/tmb/8bbd8536d46b04dc93a3d6124a0e8e25.jpg,https://store-tsutaya.tsite.jp/images/cache/tmb/40aa82830aeb2fae436541c051e80059.jpg,4547366467543,ソニー・ミュージックソリューションズ,https://www.honyaclub.com/shop/g/g19975556/,"1,320円",up
cds,8,One Day(DVD付)[期間限定版],SPYAIR,https://store-tsutaya.tsite.jp/item/sell_cd/4547366463774.html,https://store-tsutaya.tsite.jp/images/cache/tmb/9746cec2a0f4757cbc70d61e45708cec.jpg,https://store-tsutaya.tsite.jp/images/cache/tmb/3f61a5bb813b628b2dbe3a23776fc131.jpg,4547366463774,ソニー・ミュージックソリューションズ,https://www.honyaclub.com/shop/g/g20007683/,"2,000円",new
cds,9,紅蓮華(期間生産限定盤)(DVD付)[期間限定版],LiSA,https://store-tsutaya.tsite.jp/item/sell_cd/4547366408195.html,https://store-tsutaya.tsite.jp/images/cache/tmb/426198a38ab6b9692a0832aacd2edea2.jpg,https://store-tsutaya.tsite.jp/images/cache/tmb/ee5c89aa85b3c9bd57fa4e6a39c3d3f5.jpg,4547366408195,ソニー・ミュージックソリューションズ,https://www.honyaclub.com/shop/g/g19597843/,"1,760円",up
cds,10,Beast(DVD付)[初回限定版],[ALEXANDROS],https://store-tsutaya.tsite.jp/item/sell_cd/4988031403815.html,https://store-tsutaya.tsite.jp/images/cache/tmb/d058b5882b7d6c7e6abb381bedfd823d.jpg,https://store-tsutaya.tsite.jp/images/cache/tmb/3fab5b15062b1f06eb69382485eb94bc.jpg,4988031403815,ユニバーサル・ミュージック,https://www.honyaclub.com/shop/g/g20025030/,"2,530円",new
cda,1,Strawberry Prince 私立すとぷり学園 -学力テスト編-(DVD付)[初回限定版],すとぷり,https://store-tsutaya.tsite.jp/item/sell_cd/4988031402825.html,https://store-tsutaya.tsite.jp/images/cache/tmb/b79a2ab1b441e8c8bc3c9c209eededbb.jpg,https://store-tsutaya.tsite.jp/images/cache/tmb/48b791c52509b72618b58a167765378f.jpg,4988031402825,その他,https://www.honyaclub.com/shop/g/g20032286/,"3,300円",new
cda,2,Strawberry Prince(通常盤),すとぷり,https://store-tsutaya.tsite.jp/item/sell_cd/4988031402832.html,https://store-tsutaya.tsite.jp/images/cache/tmb/b30082ce264650422425bd53fceec796.jpg,https://store-tsutaya.tsite.jp/images/cache/tmb/2a9d0fb72862eeae11571a899b0f33c6.jpg,4988031402832,その他,https://www.honyaclub.com/shop/g/g20032283/,"2,750円",new
cda,3,Strawberry Prince(A)[初回限定版],すとぷり,https://store-tsutaya.tsite.jp/item/sell_cd/4988031402801.html,https://store-tsutaya.tsite.jp/images/cache/tmb/d62eb73352ae60b850124a2cb42aa49b.jpg,https://store-tsutaya.tsite.jp/images/cache/tmb/db19c09b20dd68ba223067d7249fa59f.jpg,4988031402801,その他,https://www.honyaclub.com/shop/g/g20032284/,"4,620円",new
cda,4,This is 嵐(DVD付)[初回限定版],嵐,https://store-tsutaya.tsite.jp/item/sell_cd/4582515770402.html,https://store-tsutaya.tsite.jp/images/cache/tmb/fa47249451abef3f010df5064dfcb923.jpg,https://store-tsutaya.tsite.jp/images/cache/tmb/7b365e5a69499e12e5d6b2329b74001d.jpg,4582515770402,ソニー・ミュージックソリューションズ,https://www.honyaclub.com/shop/g/g20026179/,"3,850円",down
cda,5,Strawberry Prince(B)[初回限定版],すとぷり,https://store-tsutaya.tsite.jp/item/sell_cd/4988031402818.html,https://store-tsutaya.tsite.jp/images/cache/tmb/01ce30b4df65f7467d2e46c7bebe70a3.jpg,https://store-tsutaya.tsite.jp/images/cache/tmb/352a459c9e90ad3d0c67d6f267601c43.jpg,4988031402818,その他,https://www.honyaclub.com/shop/g/g20032285/,"3,300円",new
cda,6,oo(通常盤),,,https://store-tsutaya.tsite.jp/images/cache/tmb/f23ee926f844da48ff1d49c2cb1dcf57.png,,,,,--,up
cda,7,This is 嵐(BD付)[初回限定版],嵐,https://store-tsutaya.tsite.jp/item/sell_cd/4582515770419.html,https://store-tsutaya.tsite.jp/images/cache/tmb/dbefe0bc1c440ff52bf747bfa8a2744c.jpg,https://store-tsutaya.tsite.jp/images/cache/tmb/8d2901de4abd60cda52052d279f5179d.jpg,4582515770419,ソニー・ミュージックソリューションズ,https://www.honyaclub.com/shop/g/g20026180/,"3,850円",down
cda,8,In the Fairlife,浜田省吾,https://store-tsutaya.tsite.jp/item/sell_cd/4547366472165.html,https://store-tsutaya.tsite.jp/images/cache/tmb/c9fb5362011ed680be2cf0f1503a1a02.jpg,https://store-tsutaya.tsite.jp/images/cache/tmb/61c9377246b2af0b4a0d509c6dd880a0.jpg,4547366472165,ソニー・ミュージックソリューションズ,https://www.honyaclub.com/shop/g/g20007706/,"2,420円",new
cda,9,This is 嵐(通常盤),嵐,https://store-tsutaya.tsite.jp/item/sell_cd/4582515770426.html,https://store-tsutaya.tsite.jp/images/cache/tmb/b9517d89591f1df723e4a4b45878671a.jpg,https://store-tsutaya.tsite.jp/images/cache/tmb/90d4660b93be5120a3ce7648c19b4509.jpg,4582515770426,ソニー・ミュージックソリューションズ,https://www.honyaclub.com/shop/g/g20026181/,"3,080円",down
cda,10,俺のRequest,JUJU,https://store-tsutaya.tsite.jp/item/sell_cd/4547366467673.html,https://store-tsutaya.tsite.jp/images/cache/tmb/cd86898ab8d061bc90687402d8e79360.jpg,https://store-tsutaya.tsite.jp/images/cache/tmb/800e539b46e67f08820e10a9a5566da4.jpg,4547366467673,ソニー・ミュージックソリューションズ,https://www.honyaclub.com/shop/g/g19975505/,"2,900円",down
dvd,1,KinKi Kids Concert Tour 2019-2020 ThanKs 2 YOU,KinKi Kids,https://store-tsutaya.tsite.jp/item/sell_dvd/4582515770334.html,https://store-tsutaya.tsite.jp/images/cache/tmb/7f4bc76587d3d340a74ed86ec2028ee4.jpg,https://store-tsutaya.tsite.jp/images/cache/tmb/c01eda2b3c1cef4a81ecce34fe6bb8b3.jpg,4582515770334,ソニー・ミュージックソリューションズ,https://www.honyaclub.com/shop/g/g20038967/,"8,800円",new
dvd,2,KinKi Kids Concert Tour 2019-2020 ThanKs 2 YOU,KinKi Kids,https://store-tsutaya.tsite.jp/item/sell_dvd/4582515770310.html,https://store-tsutaya.tsite.jp/images/cache/tmb/a1ee372e5f53c03841f6f09741b649aa.jpg,https://store-tsutaya.tsite.jp/images/cache/tmb/e9049e496bd925b5c287c3abcff3cc94.jpg,4582515770310,ソニー・ミュージックソリューションズ,https://www.honyaclub.com/shop/g/g20038966/,"8,800円",new
dvd,3,KinKi Kids Concert Tour 2019-2020 ThanKs 2 YOU(通常盤),KinKi Kids,https://store-tsutaya.tsite.jp/item/sell_dvd/4582515770327.html,https://store-tsutaya.tsite.jp/images/cache/tmb/53e19cce4fde30b45ca8b37305b1c59b.jpg,https://store-tsutaya.tsite.jp/images/cache/tmb/8a1d78e35bc85c01c448ea9be93559a0.jpg,4582515770327,ソニー・ミュージックソリューションズ,https://www.honyaclub.com/shop/g/g20038964/,"7,590円",new
dvd,4,KinKi Kids Concert Tour 2019-2020 ThanKs 2 YOU(通常盤),KinKi Kids,https://store-tsutaya.tsite.jp/item/sell_dvd/4582515770341.html,https://store-tsutaya.tsite.jp/images/cache/tmb/4623b75abcb7702622487bd6e02e5572.jpg,https://store-tsutaya.tsite.jp/images/cache/tmb/d6a434550da535c52ee687eaac3b23ba.jpg,4582515770341,ソニー・ミュージックソリューションズ,https://www.honyaclub.com/shop/g/g20038965/,"7,590円",new
dvd,5,ARASHI Anniversary Tour 5×20,嵐,https://store-tsutaya.tsite.jp/item/sell_dvd/4582515770174.html,https://store-tsutaya.tsite.jp/images/cache/tmb/493c469ab4a3c0edc969caca26620296.jpg,https://store-tsutaya.tsite.jp/images/cache/tmb/e36529d68fe36377a0900ea914fd376c.jpg,4582515770174,ソニー・ミュージックソリューションズ,https://www.honyaclub.com/shop/g/g19981631/,"5,800円",down
dvd,6,東野・岡村の旅猿16 プライベートでごめんなさい…バリ島で象とふれあいの旅 ワクワク編 プレミアム完全版,東野幸治,https://store-tsutaya.tsite.jp/item/sell_dvd/4571487587132.html,https://store-tsutaya.tsite.jp/images/cache/tmb/fe3260791f7d1364e02d654570f26a69.jpg,https://store-tsutaya.tsite.jp/images/cache/tmb/96d3938916da08798014137575ffa4e6.jpg,4571487587132,ソニー・ミュージックソリューションズ,https://www.honyaclub.com/shop/g/g19976067/,"3,143円",new
dvd,7,東野・岡村の旅猿16 プライベートでごめんなさい…バリ島で象とふれあいの旅 ウキウキ編 プレミアム完全版,東野幸治,https://store-tsutaya.tsite.jp/item/sell_dvd/4571487587156.html,https://store-tsutaya.tsite.jp/images/cache/tmb/a6d0250e1bf044ac7ad654da516c243a.jpg,https://store-tsutaya.tsite.jp/images/cache/tmb/52424d92c1d996ef37f79b5fda5a28a6.jpg,4571487587156,ソニー・ミュージックソリューションズ,https://www.honyaclub.com/shop/g/g19976068/,"3,143円",new
dvd,8,"ONE OK ROCK “EYE OF THE STORM"" JAPAN TOUR",ONE OK ROCK,https://store-tsutaya.tsite.jp/item/sell_dvd/4580684124415.html,https://store-tsutaya.tsite.jp/images/cache/tmb/dde2aa8c5c8846e59c909668dfe9fecc.jpg,https://store-tsutaya.tsite.jp/images/cache/tmb/23e6a6bcdeebf68d2fc68a6319e173db.jpg,4580684124415,アミューズ,https://www.honyaclub.com/shop/g/g20016231/,"6,050円",down
dvd,9,氷川きよし 特選PV集Vol.2,氷川きよし,https://store-tsutaya.tsite.jp/item/sell_dvd/4549767105406.html,https://store-tsutaya.tsite.jp/images/cache/tmb/d2dfb1dabd66839ad103200b99bf6883.jpg,https://store-tsutaya.tsite.jp/images/cache/tmb/4d43d7c13fbb3f1d28cd4351501eaeb3.jpg,4549767105406,日本コロムビア,https://www.honyaclub.com/shop/g/g20032231/,"6,600円",new
dvd,10,ソードアート・オンライン アリシゼーション War of Underworld 7,川原礫,https://store-tsutaya.tsite.jp/item/sell_dvd/4534530121561.html,https://store-tsutaya.tsite.jp/images/cache/tmb/ddd6af6e06bc6306e5faf281ca18cef5.jpg,https://store-tsutaya.tsite.jp/images/cache/tmb/06b8354a5472505b8c176e347d43359f.jpg,4534530121561,ソニー・ミュージックソリューションズ,https://www.honyaclub.com/shop/g/g19728962/,"8,580円",new
game,1,コール オブ デューティ ブラックオプス コールドウォー,PS4,https://store-tsutaya.tsite.jp/item/sell_game/4948872015837.html,https://store-tsutaya.tsite.jp/images/cache/tmb/2d42b6683777ae382fce0491f6a9a978.png,https://store-tsutaya.tsite.jp/images/cache/tmb/088978ec786eb26b9dfb7dd594d89fb0.png,4948872015837,ソニー・インタラクティブエンタテインメント,--,--,new
game,2,アサシン クリード ヴァルハラ,PS4,https://store-tsutaya.tsite.jp/item/sell_game/4949244010962.html,https://store-tsutaya.tsite.jp/images/cache/tmb/f3e8d0e0a978b168c68051dc3570d1a6.jpg,https://store-tsutaya.tsite.jp/images/cache/tmb/2fcaf14254b4b6e5d17957801b0878d5.jpg,4949244010962,ユービーアイ ソフト,--,--,new
game,3,ピクミン3 デラックス,Nintendo Switch,https://store-tsutaya.tsite.jp/item/sell_game/4902370546941.html,https://store-tsutaya.tsite.jp/images/cache/tmb/e847803e92912a23f81e6843eaf3fd36.jpg,https://store-tsutaya.tsite.jp/images/cache/tmb/9cc98a1a35f948f7a6ebf8054b6e7c22.jpg,4902370546941,任天堂,--,--,down
game,4,キングダム ハーツ メロディ オブ メモリー,Nintendo Switch,https://store-tsutaya.tsite.jp/item/sell_game/4988601010726.html,https://store-tsutaya.tsite.jp/images/cache/tmb/d0f1e9e291c442a7aabef4b25020d24c.jpg,https://store-tsutaya.tsite.jp/images/cache/tmb/8a99ab747048868484f4a7cdefef2a4b.jpg,4988601010726,スクウェア・エニックス,--,--,new
game,5,リングフィット アドベンチャー,Nintendo Switch,https://store-tsutaya.tsite.jp/item/sell_game/4902370543278.html,https://store-tsutaya.tsite.jp/images/cache/tmb/e6abe76933a692a541d33ac4f89f25cb.jpg,https://store-tsutaya.tsite.jp/images/cache/tmb/3784d54d8c60a17f83b0469b34e81ddb.jpg,4902370543278,任天堂,--,--,down
game,6,Marvel's Spider-Man: Miles Morales,PS4,https://store-tsutaya.tsite.jp/item/sell_game/4948872015851.html,https://store-tsutaya.tsite.jp/images/cache/tmb/2d42b6683777ae382fce0491f6a9a978.png,https://store-tsutaya.tsite.jp/images/cache/tmb/088978ec786eb26b9dfb7dd594d89fb0.png,4948872015851,ソニー・インタラクティブエンタテインメント,--,--,new
game,7,天穂のサクナヒメ,Nintendo Switch,https://store-tsutaya.tsite.jp/item/sell_game/4535506303158.html,https://store-tsutaya.tsite.jp/images/cache/tmb/9b02e1015a3dfd18b7eae008eac5d42e.jpg,https://store-tsutaya.tsite.jp/images/cache/tmb/b3cfa5796dd7b0b8b65e7b176b860ee0.jpg,4535506303158,マーベラスエンターテイメント,--,--,new
game,8,キングダム ハーツ メロディ オブ メモリー,PS4,https://store-tsutaya.tsite.jp/item/sell_game/4988601010719.html,https://store-tsutaya.tsite.jp/images/cache/tmb/61d78e4b83b7cca1d3cec8bfbd4b1303.jpg,https://store-tsutaya.tsite.jp/images/cache/tmb/bc15201d149529198852288a9e0787ae.jpg,4988601010719,スクウェア・エニックス,--,--,new
game,9,Demon's Souls,PlayStation5,https://store-tsutaya.tsite.jp/item/sell_game/4948872015875.html,https://store-tsutaya.tsite.jp/images/cache/tmb/2d42b6683777ae382fce0491f6a9a978.png,https://store-tsutaya.tsite.jp/images/cache/tmb/088978ec786eb26b9dfb7dd594d89fb0.png,4948872015875,ソニー・インタラクティブエンタテインメント,--,--,new
game,10,天穂のサクナヒメ,PS4,https://store-tsutaya.tsite.jp/item/sell_game/4535506303134.html,https://store-tsutaya.tsite.jp/images/cache/tmb/cabcfa1f52c7e0036d94f4def3715fd4.jpg,https://store-tsutaya.tsite.jp/images/cache/tmb/33ee446197dbc0f0c9f361a5e60b4095.jpg,4535506303134,マーベラスエンターテイメント,--,--,new
