﻿cds,1,BAN(A)(BD付),櫻坂46,https://store-tsutaya.tsite.jp/item/sell_cd/4547366498608.html,https://store-tsutaya.tsite.jp/images/cache/tmb/6a92d65c95396784580b05a948b1a5c1.jpg,https://store-tsutaya.tsite.jp/images/cache/tmb/6ba1c265d48cb2acdab913333cff0e92.jpg,4547366498608,ソニー・ミュージックソリューションズ,https://www.honyaclub.com/shop/g/g20189311/,"1,900円",new
cds,2,BAN(B)(BD付),櫻坂46,https://store-tsutaya.tsite.jp/item/sell_cd/4547366498615.html,https://store-tsutaya.tsite.jp/images/cache/tmb/808b76dd473e085822a01a838cba77f0.jpg,https://store-tsutaya.tsite.jp/images/cache/tmb/2663f04808fa0f860a43ad08e1f43d70.jpg,4547366498615,ソニー・ミュージックソリューションズ,https://www.honyaclub.com/shop/g/g20189312/,"1,900円",new
cds,3,BAN(D)(BD付),櫻坂46,https://store-tsutaya.tsite.jp/item/sell_cd/4547366498639.html,https://store-tsutaya.tsite.jp/images/cache/tmb/2301ea2dbfa6ee7fea1c18ad8f9e7765.jpg,https://store-tsutaya.tsite.jp/images/cache/tmb/f66418e6b12e0d09d164799c20c98c14.jpg,4547366498639,ソニー・ミュージックソリューションズ,https://www.honyaclub.com/shop/g/g20189314/,"1,900円",new
cds,4,BAN(C)(BD付),櫻坂46,https://store-tsutaya.tsite.jp/item/sell_cd/4547366498622.html,https://store-tsutaya.tsite.jp/images/cache/tmb/8685bd2ed4f596bb30ee994e904ccf84.jpg,https://store-tsutaya.tsite.jp/images/cache/tmb/bc9d738f45dce9d36bbc0ce9af88e502.jpg,4547366498622,ソニー・ミュージックソリューションズ,https://www.honyaclub.com/shop/g/g20189313/,"1,900円",new
cds,5,Chilly Chili Sauce(DVD付)[初回限定版],WANIMA,https://store-tsutaya.tsite.jp/item/sell_cd/4943674331543.html,https://store-tsutaya.tsite.jp/images/cache/tmb/0cdce2d6cfc78f4fdaf786b5f4e8111a.jpg,https://store-tsutaya.tsite.jp/images/cache/tmb/6e8bd6b58949274c51682167076591fb.jpg,4943674331543,ソニー・ミュージックソリューションズ,https://www.honyaclub.com/shop/g/g20188073/,"2,860円",new
cds,6,Take a picture/Poppin' Shakin'(A)(DVD付)[初回限定版],NiziU,https://store-tsutaya.tsite.jp/item/sell_cd/4547366498264.html,https://store-tsutaya.tsite.jp/images/cache/tmb/aa467f358322432f6fb6967101291f9c.jpg,https://store-tsutaya.tsite.jp/images/cache/tmb/2c87ba0282a6bb883b5e6a37179f5ef6.jpg,4547366498264,ソニー・ミュージックソリューションズ,https://www.honyaclub.com/shop/g/g20160951/,"2,100円",new
cds,7,Take a picture/Poppin' Shakin',NiziU,https://store-tsutaya.tsite.jp/item/sell_cd/4547366498288.html,https://store-tsutaya.tsite.jp/images/cache/tmb/8047248ca984d14f1bb932f86eab0121.jpg,https://store-tsutaya.tsite.jp/images/cache/tmb/e0cc32c9921914b9fa338b420a5668d3.jpg,4547366498288,ソニー・ミュージックソリューションズ,https://www.honyaclub.com/shop/g/g20160953/,"1,599円",new
cds,8,Take a picture/Poppin' Shakin'(B)[初回限定版],NiziU,https://store-tsutaya.tsite.jp/item/sell_cd/4547366498271.html,https://store-tsutaya.tsite.jp/images/cache/tmb/ce794f210e438ddf1c6395b37d53f560.jpg,https://store-tsutaya.tsite.jp/images/cache/tmb/6717fde1e46a7f6708d740f25a656876.jpg,4547366498271,ソニー・ミュージックソリューションズ,https://www.honyaclub.com/shop/g/g20160952/,"1,800円",new
cds,9,BAN,櫻坂46,https://store-tsutaya.tsite.jp/item/sell_cd/4547366498646.html,https://store-tsutaya.tsite.jp/images/cache/tmb/00684e533df9e97623e19f7a196635da.jpg,https://store-tsutaya.tsite.jp/images/cache/tmb/7693154068b72515281394de55911594.jpg,4547366498646,ソニー・ミュージックソリューションズ,https://www.honyaclub.com/shop/g/g20189315/,"1,100円",new
cds,10,Nothin' but funky(通常盤),A.B.C-Z,https://store-tsutaya.tsite.jp/item/sell_cd/4988013534094.html,https://store-tsutaya.tsite.jp/images/cache/tmb/f018c967be4142b77534c5b5a8504c12.jpg,https://store-tsutaya.tsite.jp/images/cache/tmb/dede255164eab8f8412f91725ec977de.jpg,4988013534094,ポニーキャニオン,https://www.honyaclub.com/shop/g/g20188800/,"1,210円",new
cda,1,Walpurgis(通常盤),Aimer,https://store-tsutaya.tsite.jp/item/sell_cd/4547366488562.html,https://store-tsutaya.tsite.jp/images/cache/tmb/9b908d51cf7c2703f2b3bdbb2eaac24c.jpg,https://store-tsutaya.tsite.jp/images/cache/tmb/0b81ad763896460aa4ab876a88785e3d.jpg,4547366488562,ソニー・ミュージックソリューションズ,https://www.honyaclub.com/shop/g/g20099175/,"3,300円",new
cda,2,Walpurgis(B)(DVD付)[初回限定版],Aimer,https://store-tsutaya.tsite.jp/item/sell_cd/4547366488579.html,https://store-tsutaya.tsite.jp/images/cache/tmb/a3c63538790f3c806291ae0e6cd13467.jpg,https://store-tsutaya.tsite.jp/images/cache/tmb/06c0b82d4ce1d85124bcaab13ab0eeab.jpg,4547366488579,ソニー・ミュージックソリューションズ,https://www.honyaclub.com/shop/g/g20099174/,"3,960円",new
cda,3,Walpurgis(A)(BD付)[初回限定版],Aimer,https://store-tsutaya.tsite.jp/item/sell_cd/4547366488586.html,https://store-tsutaya.tsite.jp/images/cache/tmb/835615cbfba567d13f4fdf5f5ad68d23.jpg,https://store-tsutaya.tsite.jp/images/cache/tmb/ba259a8bf6131d72b77cdfe3335115ba.jpg,4547366488586,ソニー・ミュージックソリューションズ,https://www.honyaclub.com/shop/g/g20099173/,"5,280円",new
cda,4,One Last Kiss,宇多田ヒカル,https://store-tsutaya.tsite.jp/item/sell_cd/4547366488388.html,https://store-tsutaya.tsite.jp/images/cache/tmb/23110ba5fd7e849fe77564adfee7656a.jpg,https://store-tsutaya.tsite.jp/images/cache/tmb/53d6ac35aea8000c53fdffd85274697b.jpg,4547366488388,ソニー・ミュージックソリューションズ,https://www.honyaclub.com/shop/g/g20110953/,"2,200円",stay
cda,5,Walpurgis(完全生産限定盤)(BD付)[初回限定版],Aimer,https://store-tsutaya.tsite.jp/item/sell_cd/4547366488593.html,https://store-tsutaya.tsite.jp/images/cache/tmb/e9e0d88dd155cc286cbc18216d27483d.jpg,https://store-tsutaya.tsite.jp/images/cache/tmb/5d1f350672988164c50e4e306189b5e7.jpg,4547366488593,ソニー・ミュージックソリューションズ,https://www.honyaclub.com/shop/g/g20099172/,"9,900円",new
cda,6,Let The Bad Times Roll,オフスプリング,https://store-tsutaya.tsite.jp/item/sell_cd/4988031424681.html,https://store-tsutaya.tsite.jp/images/cache/tmb/32fe8b7661ff9fec74388437f4b997fb.jpg,https://store-tsutaya.tsite.jp/images/cache/tmb/c47c1f6d2d63b7efef1c700629701da0.jpg,4988031424681,ユニバーサル・ミュージック,https://www.honyaclub.com/shop/g/g20170002/,"3,300円",new
cda,7,ケツノパラダイス,ケツメイシ,https://store-tsutaya.tsite.jp/item/sell_cd/4988064966349.html,https://store-tsutaya.tsite.jp/images/cache/tmb/b9f8d5ac19173fd8810057d7461a2e69.jpg,https://store-tsutaya.tsite.jp/images/cache/tmb/72f8f04a0546cf88155c67338a2d7846.jpg,4988064966349,エイベックス・エンタテインメント,https://www.honyaclub.com/shop/g/g20072662/,"3,520円",new
cda,8,はじめての マキシマム ザ ホルモン マスク「ESSENTIALS」(REGULAR STYLE),マキシマム ザ ホルモン,https://store-tsutaya.tsite.jp/item/sell_cd/4943674331253.html,https://store-tsutaya.tsite.jp/images/cache/tmb/8e5a079b67bf0d61530477b0a42434c6.jpg,https://store-tsutaya.tsite.jp/images/cache/tmb/ba1b6d0b89bcfae1a5f0ea24f279bfb9.jpg,4943674331253,ソニー・ミュージックソリューションズ,https://www.honyaclub.com/shop/g/g20181801/,"2,669円",new
cda,9,ケツノパラダイス(DVD付),ケツメイシ,https://store-tsutaya.tsite.jp/item/sell_cd/4988064966301.html,https://store-tsutaya.tsite.jp/images/cache/tmb/472c9cf54c007050218ae0dbfa925418.jpg,https://store-tsutaya.tsite.jp/images/cache/tmb/b8baf8d3db0d0bad811e0189a048eead.jpg,4988064966301,エイベックス・エンタテインメント,https://www.honyaclub.com/shop/g/g20072660/,"4,950円",new
cda,10,"Shiro SAGISU Music from“SHIN EVANGELION""",エヴァンゲリオン,https://store-tsutaya.tsite.jp/item/sell_cd/4988003579364.html,https://store-tsutaya.tsite.jp/images/cache/tmb/4b95c658655cdb814d48ca63e7c5134f.jpg,https://store-tsutaya.tsite.jp/images/cache/tmb/70f6481295b99584eca835ab53c87a2c.jpg,4988003579364,キングレコード,https://www.honyaclub.com/shop/g/g20116393/,"4,180円",down
dvd,1,滝沢歌舞伎 ZERO 2020 The Movie,Ｓｎｏｗ　Ｍａｎ,https://store-tsutaya.tsite.jp/item/sell_dvd/4988064273805.html,https://store-tsutaya.tsite.jp/images/cache/tmb/7a97c12cc1c7de11a7d88b7ed6d3e576.jpg,https://store-tsutaya.tsite.jp/images/cache/tmb/f9a70b9fbbf2f7ea513c8807a214589e.jpg,4988064273805,エイベックス・エンタテインメント,https://www.honyaclub.com/shop/g/g20177921/,"7,150円",new
dvd,2,滝沢歌舞伎 ZERO 2020 The Movie,Ｓｎｏｗ　Ｍａｎ,https://store-tsutaya.tsite.jp/item/sell_dvd/4988064273836.html,https://store-tsutaya.tsite.jp/images/cache/tmb/0e7a8dc72ba5b3a15f2443b16748eb2d.jpg,https://store-tsutaya.tsite.jp/images/cache/tmb/47f9bf889b28486abed63a7f53bc047b.jpg,4988064273836,エイベックス・エンタテインメント,https://www.honyaclub.com/shop/g/g20177924/,"7,150円",new
dvd,3,東野・岡村の旅猿 プライベートでごめんなさい…極楽とんぼとBBQの旅 プレミアム完全版,東野幸治,https://store-tsutaya.tsite.jp/item/sell_dvd/4571487589082.html,https://store-tsutaya.tsite.jp/images/cache/tmb/3725f1bbd0142cce4b89be01eb935efe.jpg,https://store-tsutaya.tsite.jp/images/cache/tmb/f7be0e021b34a69288c3e84d6cdbc682.jpg,4571487589082,ソニー・ミュージックソリューションズ,https://www.honyaclub.com/shop/g/g20150602/,"3,143円",new
dvd,4,STAND BY ME ドラえもん2,藤子・Ｆ・不二雄,https://store-tsutaya.tsite.jp/item/sell_dvd/4988013524897.html,https://store-tsutaya.tsite.jp/images/cache/tmb/867adb674491092d1dc927df584f6add.jpg,https://store-tsutaya.tsite.jp/images/cache/tmb/ba6e97759ac5405ca859d41f836a4c2d.jpg,4988013524897,ポニーキャニオン,https://www.honyaclub.com/shop/g/g20160939/,"4,180円",new
dvd,5,滝沢歌舞伎 ZERO 2020 The Movie(通常盤),Ｓｎｏｗ　Ｍａｎ,https://store-tsutaya.tsite.jp/item/sell_dvd/4988064273850.html,https://store-tsutaya.tsite.jp/images/cache/tmb/fa98dbfdf61f7e2a4330d2c504307495.jpg,https://store-tsutaya.tsite.jp/images/cache/tmb/bae0fe5d4d3e02f341f82bdb0b1e1b28.jpg,4988064273850,エイベックス・エンタテインメント,https://www.honyaclub.com/shop/g/g20177923/,"6,050円",new
dvd,6,2O2O.7.24閏vision特番ニュースフラッシュ(初回生産限定仕様),東京事変,https://store-tsutaya.tsite.jp/item/sell_dvd/4988031424155.html,https://store-tsutaya.tsite.jp/images/cache/tmb/4e50494af872a491ca7647788604f5a6.jpg,https://store-tsutaya.tsite.jp/images/cache/tmb/0e5c2b2595012d47bfbc32c528b0f18f.jpg,4988031424155,ユニバーサル・ミュージック,https://www.honyaclub.com/shop/g/g20177238/,"4,950円",new
dvd,7,2O2O.7.24閏vision特番ニュースフラッシュ(初回生産限定仕様),東京事変,https://store-tsutaya.tsite.jp/item/sell_dvd/4988031424148.html,https://store-tsutaya.tsite.jp/images/cache/tmb/49314bd09fc2649f9b046e543acf7f01.jpg,https://store-tsutaya.tsite.jp/images/cache/tmb/b1e8358113b18b12bbd750098348ef92.jpg,4988031424148,ユニバーサル・ミュージック,https://www.honyaclub.com/shop/g/g20177236/,"6,050円",new
dvd,8,滝沢歌舞伎 ZERO 2020 The Movie(通常盤),Ｓｎｏｗ　Ｍａｎ,https://store-tsutaya.tsite.jp/item/sell_dvd/4988064273881.html,https://store-tsutaya.tsite.jp/images/cache/tmb/a288047eccd3f7cc67f5edabdb58c465.jpg,https://store-tsutaya.tsite.jp/images/cache/tmb/21cf2819d00ded223ce18bed8f2a8825.jpg,4988064273881,エイベックス・エンタテインメント,https://www.honyaclub.com/shop/g/g20177925/,"6,050円",new
dvd,9,ケツノストロング(レモン)(通常盤),ケツメイシ,https://store-tsutaya.tsite.jp/item/sell_dvd/4988064929757.html,https://store-tsutaya.tsite.jp/images/cache/tmb/aff799bff90fe7d9a477fffd5db00273.jpg,https://store-tsutaya.tsite.jp/images/cache/tmb/184a987334e9d4f6bd1876fa1858688b.jpg,4988064929757,エイベックス・エンタテインメント,https://www.honyaclub.com/shop/g/g20072036/,"4,950円",new
dvd,10,IZ*ONE 1ST CONCERT IN JAPAN [EYES ON ME] TOUR FINAL -Saitama Super Arena-,IZ*ONE,https://store-tsutaya.tsite.jp/item/sell_dvd/4988031425589.html,https://store-tsutaya.tsite.jp/images/cache/tmb/827d4476fc37ab1b48d61a78c68d2a9f.jpg,https://store-tsutaya.tsite.jp/images/cache/tmb/1272146aba45104b7f42ee77373100d9.jpg,4988031425589,ユニバーサル・ミュージック,https://www.honyaclub.com/shop/g/g20177914/,"9,900円",new
game,1,モンスターハンターライズ,Nintendo Switch,https://store-tsutaya.tsite.jp/item/sell_game/4976219115803.html,https://store-tsutaya.tsite.jp/images/cache/tmb/075c9a8565998b1ad6cca0f499fd8065.jpg,https://store-tsutaya.tsite.jp/images/cache/tmb/b1d9ee2ddfe392385da32efabeac032d.jpg,4976219115803,カプコン,--,--,new
game,2,Winning Post 9 2021,PS4,https://store-tsutaya.tsite.jp/item/sell_game/4988615142598.html,https://store-tsutaya.tsite.jp/images/cache/tmb/72f6ffacfcf45efbaf7fa6ac4f57a130.jpg,https://store-tsutaya.tsite.jp/images/cache/tmb/fa60e8613fa741a7dff0cea3f6241d5a.jpg,4988615142598,コーエーテクモゲームス,--,--,new
game,3,スーパーマリオ 3Dワールド + フューリーワールド,Nintendo Switch,https://store-tsutaya.tsite.jp/item/sell_game/4902370547115.html,https://store-tsutaya.tsite.jp/images/cache/tmb/7e4b253e3021c9a0d51ee2a3a715bcae.jpg,https://store-tsutaya.tsite.jp/images/cache/tmb/d1227a4c593972ae6d3ec1151b4933db.jpg,4902370547115,任天堂,--,--,down
game,4,桃太郎電鉄 ~昭和 平成 令和も定番!~,Nintendo Switch,https://store-tsutaya.tsite.jp/item/sell_game/4988602173222.html,https://store-tsutaya.tsite.jp/images/cache/tmb/01fde22f14cb4afbb0a9086e46777e49.jpg,https://store-tsutaya.tsite.jp/images/cache/tmb/01ff55a63666562c0b8ddfe7a71fac9a.jpg,4988602173222,コナミ,--,--,down
game,5,Winning Post 9 2021,Nintendo Switch,https://store-tsutaya.tsite.jp/item/sell_game/4988615157103.html,https://store-tsutaya.tsite.jp/images/cache/tmb/396b5f406378c12a7adba5b42c51b889.jpg,https://store-tsutaya.tsite.jp/images/cache/tmb/67ed402d618d48ce066924ac538dbdc6.jpg,4988615157103,コーエーテクモゲームス,--,--,new
game,6,Minecraft,Nintendo Switch,https://store-tsutaya.tsite.jp/item/sell_game/4549576094113.html,https://store-tsutaya.tsite.jp/images/cache/tmb/6041460ba41ddb8ae37b11465add17f7.jpg,https://store-tsutaya.tsite.jp/images/cache/tmb/2c4d7eca9a39494877e8ff4cca80580f.jpg,4549576094113,日本マイクロソフト株式会社,--,--,stay
game,7,あつまれ どうぶつの森,Nintendo Switch,https://store-tsutaya.tsite.jp/item/sell_game/4902370545319.html,https://store-tsutaya.tsite.jp/images/cache/tmb/913b7075d498af84c2eb8ae17a475654.jpg,https://store-tsutaya.tsite.jp/images/cache/tmb/c4a3ac9aa436b3fc4fd268b19dd1b741.jpg,4902370545319,任天堂,--,--,new
game,8,大乱闘スマッシュブラザーズ SPECIAL,Nintendo Switch,https://store-tsutaya.tsite.jp/item/sell_game/4902370540734.html,https://store-tsutaya.tsite.jp/images/cache/tmb/4346942721b6a95e9fd18635954c7cfe.jpg,https://store-tsutaya.tsite.jp/images/cache/tmb/2b8f0a352c249987b000f8c6172cb32d.jpg,4902370540734,任天堂,--,--,down
game,9,リングフィット アドベンチャー,Nintendo Switch,https://store-tsutaya.tsite.jp/item/sell_game/4902370543278.html,https://store-tsutaya.tsite.jp/images/cache/tmb/e6abe76933a692a541d33ac4f89f25cb.jpg,https://store-tsutaya.tsite.jp/images/cache/tmb/3784d54d8c60a17f83b0469b34e81ddb.jpg,4902370543278,任天堂,--,--,down
game,10,マリオカート8 デラックス,Nintendo Switch,https://store-tsutaya.tsite.jp/item/sell_game/4902370536485.html,https://store-tsutaya.tsite.jp/images/cache/tmb/f9b4e44b7158a4c0db9ba68faada04dc.jpg,https://store-tsutaya.tsite.jp/images/cache/tmb/b6a837e26c31b828325fdfe7dca90c5b.jpg,4902370536485,任天堂,--,--,down
